# Blender v2.80 (sub 75) OBJ File: ''
# www.blender.org
mtllib Happy.mtl
o Happy
v -0.550001 0.244099 0.500000
v -0.550001 -0.455901 -0.500000
v -0.550001 -0.455901 0.500000
v -0.550001 0.244099 -0.500000
v -0.550001 0.544099 0.500000
v -0.550001 0.544099 -0.500000
v -0.450001 -0.455901 0.500000
v -0.450001 -0.555901 -0.500000
v -0.450001 -0.555901 0.500000
v -0.450001 -0.455901 -0.500000
v 0.449999 -0.555901 0.500000
v 0.449999 -0.555901 -0.500000
v 0.449999 -0.455901 0.500000
v 0.449999 -0.455901 -0.500000
v 0.549999 -0.455901 0.500000
v 0.549999 -0.455901 -0.500000
v 0.549999 0.244099 0.500000
v 0.549999 0.244099 -0.500000
v 0.549999 0.544099 0.500000
v 0.549999 0.544099 -0.500000
v -0.450001 -0.455901 0.500000
v -0.550001 0.244099 0.500000
v -0.550001 -0.455901 0.500000
v -0.450001 -0.055901 0.500000
v -0.450001 0.044099 0.500000
v -0.350001 -0.255901 0.500000
v -0.450001 -0.555901 0.500000
v -0.350001 -0.155901 0.500000
v -0.350001 -0.055901 0.500000
v -0.350001 0.044099 0.500000
v -0.350001 0.144099 0.500000
v -0.250001 -0.355901 0.500000
v -0.250001 -0.255901 0.500000
v -0.250001 -0.155901 0.500000
v -0.150001 -0.055901 0.500000
v -0.150001 0.044099 0.500000
v -0.150001 0.144099 0.500000
v -0.050001 -0.055901 0.500000
v -0.050001 0.044099 0.500000
v 0.049999 -0.055901 0.500000
v 0.049999 0.044099 0.500000
v 0.149999 -0.055901 0.500000
v 0.149999 0.044099 0.500000
v 0.149999 0.144099 0.500000
v 0.249999 -0.355901 0.500000
v 0.249999 -0.255901 0.500000
v 0.249999 -0.155901 0.500000
v 0.349999 -0.255901 0.500000
v 0.349999 -0.155901 0.500000
v 0.349999 -0.055901 0.500000
v 0.349999 0.044099 0.500000
v 0.349999 0.144099 0.500000
v 0.449999 -0.555901 0.500000
v 0.449999 -0.455901 0.500000
v 0.449999 -0.055901 0.500000
v 0.449999 0.044099 0.500000
v 0.549999 -0.455901 0.500000
v 0.549999 0.244099 0.500000
v -0.550001 0.544099 0.500000
v 0.549999 0.544099 0.500000
v -0.550001 -0.455901 -0.500000
v -0.550001 0.244099 -0.500000
v -0.450001 -0.455901 -0.500000
v -0.450001 -0.555901 -0.500000
v 0.449999 -0.555901 -0.500000
v 0.449999 -0.455901 -0.500000
v 0.549999 -0.455901 -0.500000
v -0.550001 0.544099 -0.500000
v 0.549999 0.244099 -0.500000
v 0.549999 0.544099 -0.500000
v -0.450001 -0.555901 -0.500000
v 0.449999 -0.555901 0.500000
v -0.450001 -0.555901 0.500000
v 0.449999 -0.555901 -0.500000
v -0.550001 -0.455901 -0.500000
v -0.450001 -0.455901 0.500000
v -0.550001 -0.455901 0.500000
v -0.450001 -0.455901 -0.500000
v 0.449999 -0.455901 -0.500000
v 0.549999 -0.455901 0.500000
v 0.449999 -0.455901 0.500000
v 0.549999 -0.455901 -0.500000
v -0.550001 0.544099 0.500000
v 0.549999 0.544099 0.500000
v -0.550001 0.544099 -0.500000
v 0.549999 0.544099 -0.500000
vt 0.033203 0.500000
vt 0.033203 0.500000
vt 0.033203 0.500000
vt 0.033203 0.500000
vt 0.994141 0.500000
vt 0.994141 0.500000
vt 0.994141 0.500000
vt 0.994141 0.500000
vt 0.033203 0.500000
vt 0.033203 0.500000
vt 0.033203 0.500000
vt 0.033203 0.500000
vt 0.033203 0.500000
vt 0.033203 0.500000
vt 0.033203 0.500000
vt 0.033203 0.500000
vt 0.033203 0.500000
vt 0.033203 0.500000
vt 0.033203 0.500000
vt 0.033203 0.500000
vt 0.994141 0.500000
vt 0.994141 0.500000
vt 0.994141 0.500000
vt 0.994141 0.500000
vt 0.033203 0.500000
vt 0.033203 0.500000
vt 0.033203 0.500000
vt 0.033203 0.500000
vt 0.033203 0.500000
vt 0.033203 0.500000
vt 0.033203 0.500000
vt 0.033203 0.500000
vt 0.060547 0.500000
vt 0.060547 0.500000
vt 0.060547 0.500000
vt 0.033203 0.500000
vt 0.033203 0.500000
vt 0.060547 0.500000
vt 0.033203 0.500000
vt 0.033203 0.500000
vt 0.060547 0.500000
vt 0.060547 0.500000
vt 0.060547 0.500000
vt 0.033203 0.500000
vt 0.033203 0.500000
vt 0.060547 0.500000
vt 0.033203 0.500000
vt 0.060547 0.500000
vt 0.060547 0.500000
vt 0.033203 0.500000
vt 0.033203 0.500000
vt 0.060547 0.500000
vt 0.060547 0.500000
vt 0.060547 0.500000
vt 0.033203 0.500000
vt 0.033203 0.500000
vt 0.060547 0.500000
vt 0.033203 0.500000
vt 0.033203 0.500000
vt 0.033203 0.500000
vt 0.060547 0.500000
vt 0.060547 0.500000
vt 0.060547 0.500000
vt 0.033203 0.500000
vt 0.060547 0.500000
vt 0.033203 0.500000
vt 0.060547 0.500000
vt 0.060547 0.500000
vt 0.033203 0.500000
vt 0.033203 0.500000
vt 0.060547 0.500000
vt 0.033203 0.500000
vt 0.033203 0.500000
vt 0.060547 0.500000
vt 0.060547 0.500000
vt 0.033203 0.500000
vt 0.060547 0.500000
vt 0.033203 0.500000
vt 0.060547 0.500000
vt 0.060547 0.500000
vt 0.033203 0.500000
vt 0.033203 0.500000
vt 0.060547 0.500000
vt 0.033203 0.500000
vt 0.033203 0.500000
vt 0.060547 0.500000
vt 0.060547 0.500000
vt 0.033203 0.500000
vt 0.033203 0.500000
vt 0.060547 0.500000
vt 0.033203 0.500000
vt 0.994141 0.500000
vt 0.994141 0.500000
vt 0.994141 0.500000
vt 0.033203 0.500000
vt 0.994141 0.500000
vt 0.033203 0.500000
vt 0.033203 0.500000
vt 0.033203 0.500000
vt 0.033203 0.500000
vt 0.033203 0.500000
vt 0.033203 0.500000
vt 0.033203 0.500000
vt 0.994141 0.500000
vt 0.994141 0.500000
vt 0.994141 0.500000
vt 0.033203 0.500000
vt 0.994141 0.500000
vt 0.033203 0.500000
vt 0.033203 0.500000
vt 0.033203 0.500000
vt 0.033203 0.500000
vt 0.033203 0.500000
vt 0.033203 0.500000
vt 0.033203 0.500000
vt 0.033203 0.500000
vt 0.033203 0.500000
vt 0.033203 0.500000
vt 0.033203 0.500000
vt 0.033203 0.500000
vt 0.994141 0.500000
vt 0.994141 0.500000
vt 0.994141 0.500000
vt 0.994141 0.500000
vn -1.0000 0.0000 0.0000
vn 1.0000 0.0000 0.0000
vn -0.0000 -0.0000 1.0000
vn 0.0000 0.0000 -1.0000
vn 0.0000 -1.0000 -0.0000
vn 0.0000 1.0000 0.0000
usemtl palette.002
s 1
f 1/1/1 2/2/1 3/3/1
f 4/4/1 2/2/1 1/1/1
f 5/5/1 4/6/1 1/7/1
f 6/8/1 4/6/1 5/5/1
f 7/9/1 8/10/1 9/11/1
f 10/12/1 8/10/1 7/9/1
f 11/13/2 12/14/2 13/15/2
f 13/15/2 12/14/2 14/16/2
f 15/17/2 16/18/2 17/19/2
f 17/19/2 16/18/2 18/20/2
f 17/21/2 18/22/2 19/23/2
f 19/23/2 18/22/2 20/24/2
f 21/25/3 22/26/3 23/27/3
f 24/28/3 22/26/3 21/25/3
f 25/29/3 22/26/3 24/28/3
f 26/30/3 21/25/3 27/31/3
f 26/30/3 24/28/3 21/25/3
f 28/32/3 24/28/3 26/30/3
f 29/33/3 25/34/3 24/35/3
f 29/36/3 24/28/3 28/32/3
f 30/37/3 22/26/3 25/29/3
f 30/38/3 25/34/3 29/33/3
f 31/39/3 22/26/3 30/37/3
f 32/40/3 26/30/3 27/31/3
f 33/41/3 28/42/3 26/43/3
f 33/44/3 26/30/3 32/40/3
f 34/45/3 29/36/3 28/32/3
f 34/46/3 28/42/3 33/41/3
f 34/45/3 30/37/3 29/36/3
f 35/47/3 34/45/3 33/44/3
f 35/47/3 30/37/3 34/45/3
f 36/48/3 31/49/3 30/38/3
f 36/50/3 30/37/3 35/47/3
f 37/51/3 22/26/3 31/39/3
f 37/52/3 31/49/3 36/48/3
f 38/53/3 36/48/3 35/54/3
f 38/55/3 35/47/3 33/44/3
f 39/56/3 37/51/3 36/50/3
f 39/57/3 36/48/3 38/53/3
f 40/58/3 38/55/3 33/44/3
f 40/58/3 39/56/3 38/55/3
f 41/59/3 37/51/3 39/56/3
f 41/59/3 39/56/3 40/58/3
f 42/60/3 40/58/3 33/44/3
f 42/61/3 41/62/3 40/63/3
f 43/64/3 37/51/3 41/59/3
f 43/65/3 41/62/3 42/61/3
f 44/66/3 22/26/3 37/51/3
f 44/66/3 37/51/3 43/64/3
f 45/67/3 33/41/3 32/68/3
f 45/69/3 32/40/3 27/31/3
f 46/70/3 43/64/3 42/60/3
f 46/71/3 33/41/3 45/67/3
f 46/70/3 42/60/3 33/44/3
f 47/72/3 43/64/3 46/70/3
f 48/73/3 46/70/3 45/69/3
f 48/74/3 47/75/3 46/71/3
f 49/76/3 43/64/3 47/72/3
f 49/77/3 47/75/3 48/74/3
f 50/78/3 43/64/3 49/76/3
f 51/79/3 44/80/3 43/65/3
f 51/81/3 43/64/3 50/78/3
f 52/82/3 22/26/3 44/66/3
f 52/83/3 44/80/3 51/79/3
f 53/84/3 50/78/3 49/76/3
f 53/84/3 45/69/3 27/31/3
f 53/84/3 48/73/3 45/69/3
f 53/84/3 49/76/3 48/73/3
f 54/85/3 50/78/3 53/84/3
f 55/86/3 51/79/3 50/87/3
f 55/88/3 50/78/3 54/85/3
f 56/89/3 52/82/3 51/81/3
f 56/90/3 51/79/3 55/86/3
f 57/91/3 55/88/3 54/85/3
f 57/91/3 56/89/3 55/88/3
f 58/92/3 59/93/3 22/94/3
f 58/95/3 56/89/3 57/91/3
f 58/95/3 52/82/3 56/89/3
f 58/95/3 22/26/3 52/82/3
f 60/96/3 59/93/3 58/92/3
f 61/97/4 62/98/4 63/99/4
f 64/100/4 63/99/4 65/101/4
f 63/99/4 62/98/4 66/102/4
f 65/101/4 63/99/4 66/102/4
f 66/102/4 62/98/4 67/103/4
f 62/104/4 68/105/4 69/106/4
f 67/103/4 62/98/4 69/107/4
f 69/106/4 68/105/4 70/108/4
f 71/109/5 72/110/5 73/111/5
f 74/112/5 72/110/5 71/109/5
f 75/113/5 76/114/5 77/115/5
f 78/116/5 76/114/5 75/113/5
f 79/117/5 80/118/5 81/119/5
f 82/120/5 80/118/5 79/117/5
f 83/121/6 84/122/6 85/123/6
f 85/123/6 84/122/6 86/124/6
