# Blender v2.80 (sub 75) OBJ File: ''
# www.blender.org
mtllib Grill Version 2.mtl
o Grill_Version_2
v -1.500156 0.311403 1.741670
v -1.500156 -1.088596 -1.458330
v -1.500156 -1.088597 1.941670
v -1.500156 0.311404 1.441670
v -1.500156 0.411403 1.741670
v -1.500156 0.411403 1.441670
v -1.500156 0.411404 0.941670
v -1.500156 0.511403 1.941670
v -1.500156 0.511403 1.741670
v -1.500156 0.511403 1.441670
v -1.500156 0.511403 0.941670
v -1.500156 0.611404 0.941670
v -1.500156 0.611404 0.741670
v -1.500156 0.711403 0.741670
v -1.500156 0.711404 0.541670
v -1.500156 0.811404 0.541670
v -1.500156 0.811404 0.341670
v -1.500156 0.911404 0.341670
v -1.500156 0.911404 -1.158330
v -1.500156 1.611404 -1.158330
v -1.500156 1.611404 -1.458330
v -1.100156 1.611404 -1.258330
v -1.100156 1.511404 -1.358330
v -1.100156 1.511404 -1.258330
v -1.100156 1.611404 -1.358330
v -0.200156 1.611404 -1.258330
v -0.200156 1.511404 -1.358330
v -0.200156 1.511404 -1.258330
v -0.200156 1.611404 -1.358330
v 0.599844 1.611404 -1.258330
v 0.599844 1.511404 -1.358330
v 0.599844 1.511404 -1.258330
v 0.599844 1.611404 -1.358330
v 1.399844 0.611404 0.941670
v 1.399844 0.511404 -1.158330
v 1.399844 0.511403 0.941670
v 1.399844 0.611404 0.741670
v 1.399844 0.711403 0.741670
v 1.399844 0.711404 0.541670
v 1.399844 0.811404 0.541670
v 1.399844 0.811404 0.341670
v 1.399844 0.911404 0.341670
v 1.399844 0.911404 -1.158330
v 1.399844 1.611404 -1.258330
v 1.399844 1.511404 -1.358330
v 1.399844 1.511404 -1.258330
v 1.399844 1.611404 -1.358330
v -1.400156 0.511403 0.941670
v -1.400156 0.511404 -1.158330
v -1.400156 0.611404 0.941670
v -1.400156 0.611404 0.741670
v -1.400156 0.711403 0.741670
v -1.400156 0.711404 0.541670
v -1.400156 0.811404 0.541670
v -1.400156 0.811404 0.341670
v -1.400156 0.911404 0.341670
v -1.400156 0.911404 -1.158330
v -1.400156 1.511404 -1.258330
v -1.400156 1.511404 -1.358330
v -1.400156 1.611404 -1.258330
v -1.400156 1.611404 -1.358330
v -0.900156 1.511404 -1.258330
v -0.900156 1.511404 -1.358330
v -0.900156 1.611404 -1.258330
v -0.900156 1.611404 -1.358330
v -0.000156 1.511404 -1.258330
v -0.000156 1.511404 -1.358330
v -0.000156 1.611404 -1.258330
v -0.000156 1.611404 -1.358330
v 0.799844 1.511404 -1.258330
v 0.799844 1.511404 -1.358330
v 0.799844 1.611404 -1.258330
v 0.799844 1.611404 -1.358330
v 1.499844 -1.088597 1.941670
v 1.499844 -1.088596 -1.458330
v 1.499844 0.311403 1.741670
v 1.499844 0.311404 1.441670
v 1.499844 0.411403 1.741670
v 1.499844 0.411403 1.441670
v 1.499844 0.411404 0.941670
v 1.499844 0.511403 1.941670
v 1.499844 0.511403 1.741670
v 1.499844 0.511403 1.441670
v 1.499844 0.511403 0.941670
v 1.499844 0.611404 0.941670
v 1.499844 0.611404 0.741670
v 1.499844 0.711403 0.741670
v 1.499844 0.711404 0.541670
v 1.499844 0.811404 0.541670
v 1.499844 0.811404 0.341670
v 1.499844 0.911404 0.341670
v 1.499844 0.911404 -1.158330
v 1.499844 1.611404 -1.158330
v 1.499844 1.611404 -1.458330
v 1.499844 -1.088597 1.941670
v -1.500156 0.511403 1.941670
v -1.500156 -1.088597 1.941670
v 1.499844 0.511403 1.941670
v 1.499844 0.411403 1.441670
v -1.500156 0.511403 1.441670
v -1.500156 0.411403 1.441670
v 1.499844 0.511403 1.441670
v -1.400156 0.511403 0.941670
v -1.500156 0.611404 0.941670
v -1.500156 0.511403 0.941670
v -1.400156 0.611404 0.941670
v 1.499844 0.511403 0.941670
v 1.399844 0.611404 0.941670
v 1.399844 0.511403 0.941670
v 1.499844 0.611404 0.941670
v -1.400156 0.611404 0.741670
v -1.500156 0.711403 0.741670
v -1.500156 0.611404 0.741670
v -1.400156 0.711403 0.741670
v 1.499844 0.611404 0.741670
v 1.399844 0.711403 0.741670
v 1.399844 0.611404 0.741670
v 1.499844 0.711403 0.741670
v -1.400156 0.711404 0.541670
v -1.500156 0.811404 0.541670
v -1.500156 0.711404 0.541670
v -1.400156 0.811404 0.541670
v 1.499844 0.711404 0.541670
v 1.399844 0.811404 0.541670
v 1.399844 0.711404 0.541670
v 1.499844 0.811404 0.541670
v -1.400156 0.811404 0.341670
v -1.500156 0.911404 0.341670
v -1.500156 0.811404 0.341670
v -1.400156 0.911404 0.341670
v 1.499844 0.811404 0.341670
v 1.399844 0.911404 0.341670
v 1.399844 0.811404 0.341670
v 1.499844 0.911404 0.341670
v -1.400156 0.911404 -1.158330
v -1.500156 1.611404 -1.158330
v -1.500156 0.911404 -1.158330
v -1.300156 0.511404 -1.158330
v -1.400156 0.511404 -1.158330
v 1.299844 0.511404 -1.158330
v 1.399844 0.511404 -1.158330
v 1.399844 0.911404 -1.158330
v 1.499844 0.911404 -1.158330
v 1.499844 1.611404 -1.158330
v -1.100156 1.511404 -1.358330
v -1.400156 1.611404 -1.358330
v -1.400156 1.511404 -1.358330
v -1.100156 1.611404 -1.358330
v -0.200156 1.511404 -1.358330
v -0.900156 1.611404 -1.358330
v -0.900156 1.511404 -1.358330
v -0.200156 1.611404 -1.358330
v 0.599844 1.511404 -1.358330
v -0.000156 1.611404 -1.358330
v -0.000156 1.511404 -1.358330
v 0.599844 1.611404 -1.358330
v 1.399844 1.511404 -1.358330
v 0.799844 1.611404 -1.358330
v 0.799844 1.511404 -1.358330
v 1.399844 1.611404 -1.358330
v -1.500156 0.411403 1.741670
v -1.500156 0.511403 1.741670
v 1.499844 0.411403 1.741670
v 1.499844 0.511403 1.741670
v -1.400156 1.511404 -1.258330
v -1.400156 1.611404 -1.258330
v -1.100156 1.511404 -1.258330
v -1.100156 1.611404 -1.258330
v -0.900156 1.511404 -1.258330
v -0.900156 1.611404 -1.258330
v -0.200156 1.511404 -1.258330
v -0.200156 1.611404 -1.258330
v -0.000156 1.511404 -1.258330
v -0.000156 1.611404 -1.258330
v 0.599844 1.511404 -1.258330
v 0.599844 1.611404 -1.258330
v 0.799844 1.511404 -1.258330
v 0.799844 1.611404 -1.258330
v 1.399844 1.511404 -1.258330
v 1.399844 1.611404 -1.258330
v -1.500156 -1.088596 -1.458330
v -1.500156 1.611404 -1.458330
v 1.499844 -1.088596 -1.458330
v 1.499844 1.611404 -1.458330
v -1.400156 -1.088597 1.841670
v 1.499844 -1.088597 1.941670
v -1.500156 -1.088597 1.941670
v 1.399844 -1.088597 1.841670
v -1.400156 -1.088596 -1.358330
v 1.399844 -1.088596 -1.358330
v -1.500156 -1.088596 -1.458330
v 1.499844 -1.088596 -1.458330
v -1.500156 0.411403 1.741670
v 1.499844 0.411403 1.741670
v -1.500156 0.411403 1.441670
v 1.499844 0.411403 1.441670
v -1.500156 0.511403 1.941670
v 1.499844 0.511403 1.941670
v -1.500156 0.511403 1.741670
v 1.499844 0.511403 1.741670
v -1.500156 0.511403 1.441670
v 1.499844 0.511403 1.441670
v -1.500156 0.511403 0.941670
v -1.400156 0.511403 0.941670
v -1.300156 0.511403 0.941670
v 1.299844 0.511403 0.941670
v 1.399844 0.511403 0.941670
v 1.499844 0.511403 0.941670
v -1.400156 0.511404 -1.158330
v -1.300156 0.511404 -1.158330
v 1.299844 0.511404 -1.158330
v 1.399844 0.511404 -1.158330
v -1.500156 0.611404 0.941670
v -1.400156 0.611404 0.941670
v -1.500156 0.611404 0.741670
v -1.400156 0.611404 0.741670
v 1.399844 0.611404 0.941670
v 1.499844 0.611404 0.941670
v 1.399844 0.611404 0.741670
v 1.499844 0.611404 0.741670
v -1.500156 0.711403 0.741670
v -1.400156 0.711403 0.741670
v -1.500156 0.711404 0.541670
v -1.400156 0.711404 0.541670
v 1.399844 0.711403 0.741670
v 1.499844 0.711403 0.741670
v 1.399844 0.711404 0.541670
v 1.499844 0.711404 0.541670
v -1.500156 0.811404 0.541670
v -1.400156 0.811404 0.541670
v -1.500156 0.811404 0.341670
v -1.400156 0.811404 0.341670
v 1.399844 0.811404 0.541670
v 1.499844 0.811404 0.541670
v 1.399844 0.811404 0.341670
v 1.499844 0.811404 0.341670
v -1.500156 0.911404 0.341670
v -1.400156 0.911404 0.341670
v -1.500156 0.911404 -1.158330
v -1.400156 0.911404 -1.158330
v 1.399844 0.911404 0.341670
v 1.499844 0.911404 0.341670
v 1.399844 0.911404 -1.158330
v 1.499844 0.911404 -1.158330
v -1.400156 1.511404 -1.258330
v -1.100156 1.511404 -1.258330
v -1.400156 1.511404 -1.358330
v -1.100156 1.511404 -1.358330
v -0.900156 1.511404 -1.258330
v -0.200156 1.511404 -1.258330
v -0.900156 1.511404 -1.358330
v -0.200156 1.511404 -1.358330
v -0.000156 1.511404 -1.258330
v 0.599844 1.511404 -1.258330
v -0.000156 1.511404 -1.358330
v 0.599844 1.511404 -1.358330
v 0.799844 1.511404 -1.258330
v 1.399844 1.511404 -1.258330
v 0.799844 1.511404 -1.358330
v 1.399844 1.511404 -1.358330
v -1.500156 1.611404 -1.158330
v 1.499844 1.611404 -1.158330
v -1.400156 1.611404 -1.258330
v -1.100156 1.611404 -1.258330
v -0.900156 1.611404 -1.258330
v -0.200156 1.611404 -1.258330
v -0.000156 1.611404 -1.258330
v 0.599844 1.611404 -1.258330
v 0.799844 1.611404 -1.258330
v 1.399844 1.611404 -1.258330
v -1.400156 1.611404 -1.358330
v -1.100156 1.611404 -1.358330
v -0.900156 1.611404 -1.358330
v -0.200156 1.611404 -1.358330
v -0.000156 1.611404 -1.358330
v 0.599844 1.611404 -1.358330
v 0.799844 1.611404 -1.358330
v 1.399844 1.611404 -1.358330
v -1.500156 1.611404 -1.458330
v 1.499844 1.611404 -1.458330
vt 0.986328 0.500000
vt 0.986328 0.500000
vt 0.986328 0.500000
vt 0.986328 0.500000
vt 0.986328 0.500000
vt 0.994141 0.500000
vt 0.994141 0.500000
vt 0.994141 0.500000
vt 0.986328 0.500000
vt 0.994141 0.500000
vt 0.986328 0.500000
vt 0.986328 0.500000
vt 0.986328 0.500000
vt 0.966797 0.500000
vt 0.966797 0.500000
vt 0.966797 0.500000
vt 0.986328 0.500000
vt 0.966797 0.500000
vt 0.986328 0.500000
vt 0.986328 0.500000
vt 0.986328 0.500000
vt 0.986328 0.500000
vt 0.986328 0.500000
vt 0.986328 0.500000
vt 0.986328 0.500000
vt 0.986328 0.500000
vt 0.986328 0.500000
vt 0.986328 0.500000
vt 0.986328 0.500000
vt 0.986328 0.500000
vt 0.986328 0.500000
vt 0.986328 0.500000
vt 0.986328 0.500000
vt 0.986328 0.500000
vt 0.986328 0.500000
vt 0.986328 0.500000
vt 0.986328 0.500000
vt 0.986328 0.500000
vt 0.986328 0.500000
vt 0.986328 0.500000
vt 0.986328 0.500000
vt 0.986328 0.500000
vt 0.986328 0.500000
vt 0.986328 0.500000
vt 0.986328 0.500000
vt 0.986328 0.500000
vt 0.986328 0.500000
vt 0.986328 0.500000
vt 0.986328 0.500000
vt 0.986328 0.500000
vt 0.986328 0.500000
vt 0.986328 0.500000
vt 0.986328 0.500000
vt 0.986328 0.500000
vt 0.986328 0.500000
vt 0.986328 0.500000
vt 0.986328 0.500000
vt 0.986328 0.500000
vt 0.986328 0.500000
vt 0.986328 0.500000
vt 0.986328 0.500000
vt 0.986328 0.500000
vt 0.986328 0.500000
vt 0.986328 0.500000
vt 0.986328 0.500000
vt 0.986328 0.500000
vt 0.986328 0.500000
vt 0.986328 0.500000
vt 0.986328 0.500000
vt 0.986328 0.500000
vt 0.986328 0.500000
vt 0.986328 0.500000
vt 0.986328 0.500000
vt 0.986328 0.500000
vt 0.986328 0.500000
vt 0.986328 0.500000
vt 0.986328 0.500000
vt 0.986328 0.500000
vt 0.986328 0.500000
vt 0.986328 0.500000
vt 0.986328 0.500000
vt 0.986328 0.500000
vt 0.986328 0.500000
vt 0.986328 0.500000
vt 0.986328 0.500000
vt 0.994141 0.500000
vt 0.994141 0.500000
vt 0.994141 0.500000
vt 0.986328 0.500000
vt 0.994141 0.500000
vt 0.986328 0.500000
vt 0.986328 0.500000
vt 0.986328 0.500000
vt 0.966797 0.500000
vt 0.966797 0.500000
vt 0.966797 0.500000
vt 0.986328 0.500000
vt 0.966797 0.500000
vt 0.986328 0.500000
vt 0.986328 0.500000
vt 0.986328 0.500000
vt 0.986328 0.500000
vt 0.986328 0.500000
vt 0.986328 0.500000
vt 0.986328 0.500000
vt 0.986328 0.500000
vt 0.986328 0.500000
vt 0.986328 0.500000
vt 0.986328 0.500000
vt 0.986328 0.500000
vt 0.986328 0.500000
vt 0.986328 0.500000
vt 0.966797 0.500000
vt 0.966797 0.500000
vt 0.966797 0.500000
vt 0.966797 0.500000
vt 0.986328 0.500000
vt 0.986328 0.500000
vt 0.986328 0.500000
vt 0.986328 0.500000
vt 0.986328 0.500000
vt 0.986328 0.500000
vt 0.986328 0.500000
vt 0.986328 0.500000
vt 0.986328 0.500000
vt 0.986328 0.500000
vt 0.986328 0.500000
vt 0.986328 0.500000
vt 0.986328 0.500000
vt 0.986328 0.500000
vt 0.986328 0.500000
vt 0.986328 0.500000
vt 0.986328 0.500000
vt 0.986328 0.500000
vt 0.986328 0.500000
vt 0.986328 0.500000
vt 0.986328 0.500000
vt 0.986328 0.500000
vt 0.986328 0.500000
vt 0.986328 0.500000
vt 0.986328 0.500000
vt 0.986328 0.500000
vt 0.986328 0.500000
vt 0.986328 0.500000
vt 0.986328 0.500000
vt 0.986328 0.500000
vt 0.986328 0.500000
vt 0.986328 0.500000
vt 0.986328 0.500000
vt 0.986328 0.500000
vt 0.986328 0.500000
vt 0.986328 0.500000
vt 0.986328 0.500000
vt 0.986328 0.500000
vt 0.986328 0.500000
vt 0.986328 0.500000
vt 0.986328 0.500000
vt 0.986328 0.500000
vt 0.986328 0.500000
vt 0.986328 0.500000
vt 0.986328 0.500000
vt 0.986328 0.500000
vt 0.986328 0.500000
vt 0.986328 0.500000
vt 0.986328 0.500000
vt 0.986328 0.500000
vt 0.986328 0.500000
vt 0.986328 0.500000
vt 0.986328 0.500000
vt 0.986328 0.500000
vt 0.986328 0.500000
vt 0.986328 0.500000
vt 0.986328 0.500000
vt 0.986328 0.500000
vt 0.986328 0.500000
vt 0.986328 0.500000
vt 0.986328 0.500000
vt 0.986328 0.500000
vt 0.986328 0.500000
vt 0.986328 0.500000
vt 0.986328 0.500000
vt 0.986328 0.500000
vt 0.986328 0.500000
vt 0.986328 0.500000
vt 0.986328 0.500000
vt 0.986328 0.500000
vt 0.986328 0.500000
vt 0.986328 0.500000
vt 0.986328 0.500000
vt 0.986328 0.500000
vt 0.986328 0.500000
vt 0.986328 0.500000
vt 0.986328 0.500000
vt 0.986328 0.500000
vt 0.986328 0.500000
vt 0.986328 0.500000
vt 0.986328 0.500000
vt 0.986328 0.500000
vt 0.986328 0.500000
vt 0.986328 0.500000
vt 0.986328 0.500000
vt 0.986328 0.500000
vt 0.986328 0.500000
vt 0.966797 0.500000
vt 0.966797 0.500000
vt 0.966797 0.500000
vt 0.986328 0.500000
vt 0.966797 0.500000
vt 0.986328 0.500000
vt 0.986328 0.500000
vt 0.994141 0.500000
vt 0.994141 0.500000
vt 0.994141 0.500000
vt 0.994141 0.500000
vt 0.986328 0.500000
vt 0.986328 0.500000
vt 0.986328 0.500000
vt 0.986328 0.500000
vt 0.966797 0.500000
vt 0.966797 0.500000
vt 0.966797 0.500000
vt 0.966797 0.500000
vt 0.966797 0.500000
vt 0.966797 0.500000
vt 0.966797 0.500000
vt 0.966797 0.500000
vt 0.994141 0.500000
vt 0.994141 0.500000
vt 0.994141 0.500000
vt 0.966797 0.500000
vt 0.994141 0.500000
vt 0.994141 0.500000
vt 0.994141 0.500000
vt 0.994141 0.500000
vt 0.966797 0.500000
vt 0.994141 0.500000
vt 0.986328 0.500000
vt 0.986328 0.500000
vt 0.986328 0.500000
vt 0.986328 0.500000
vt 0.986328 0.500000
vt 0.986328 0.500000
vt 0.986328 0.500000
vt 0.986328 0.500000
vt 0.986328 0.500000
vt 0.986328 0.500000
vt 0.986328 0.500000
vt 0.986328 0.500000
vt 0.986328 0.500000
vt 0.986328 0.500000
vt 0.986328 0.500000
vt 0.986328 0.500000
vt 0.986328 0.500000
vt 0.986328 0.500000
vt 0.986328 0.500000
vt 0.986328 0.500000
vt 0.986328 0.500000
vt 0.986328 0.500000
vt 0.986328 0.500000
vt 0.986328 0.500000
vt 0.986328 0.500000
vt 0.986328 0.500000
vt 0.986328 0.500000
vt 0.986328 0.500000
vt 0.986328 0.500000
vt 0.986328 0.500000
vt 0.986328 0.500000
vt 0.986328 0.500000
vt 0.966797 0.500000
vt 0.966797 0.500000
vt 0.966797 0.500000
vt 0.966797 0.500000
vt 0.966797 0.500000
vt 0.966797 0.500000
vt 0.966797 0.500000
vt 0.966797 0.500000
vt 0.966797 0.500000
vt 0.966797 0.500000
vt 0.966797 0.500000
vt 0.966797 0.500000
vt 0.966797 0.500000
vt 0.966797 0.500000
vt 0.966797 0.500000
vt 0.966797 0.500000
vt 0.986328 0.500000
vt 0.986328 0.500000
vt 0.986328 0.500000
vt 0.986328 0.500000
vt 0.986328 0.500000
vt 0.986328 0.500000
vt 0.986328 0.500000
vt 0.986328 0.500000
vt 0.986328 0.500000
vt 0.986328 0.500000
vt 0.986328 0.500000
vt 0.986328 0.500000
vt 0.986328 0.500000
vt 0.986328 0.500000
vt 0.986328 0.500000
vt 0.986328 0.500000
vt 0.986328 0.500000
vt 0.986328 0.500000
vt 0.986328 0.500000
vt 0.986328 0.500000
vn -1.0000 0.0000 0.0000
vn 1.0000 0.0000 0.0000
vn 0.0000 -0.0000 1.0000
vn 0.0000 0.0000 -1.0000
vn -0.0000 -1.0000 -0.0000
vn 0.0000 1.0000 0.0000
usemtl palette.002
s 1
f 1/1/1 2/2/1 3/3/1
f 4/4/1 2/2/1 1/1/1
f 5/5/1 1/1/1 3/3/1
f 5/6/1 4/7/1 1/8/1
f 6/9/1 2/2/1 4/4/1
f 6/10/1 4/7/1 5/6/1
f 7/11/1 2/2/1 6/9/1
f 8/12/1 5/5/1 3/3/1
f 9/13/1 5/5/1 8/12/1
f 10/14/1 7/15/1 6/16/1
f 11/17/1 2/2/1 7/11/1
f 11/18/1 7/15/1 10/14/1
f 12/19/1 2/2/1 11/17/1
f 13/20/1 2/2/1 12/19/1
f 14/21/1 2/2/1 13/20/1
f 15/22/1 2/2/1 14/21/1
f 16/23/1 2/2/1 15/22/1
f 17/24/1 2/2/1 16/23/1
f 18/25/1 2/2/1 17/24/1
f 19/26/1 2/2/1 18/25/1
f 20/27/1 2/2/1 19/26/1
f 21/28/1 2/2/1 20/27/1
f 22/29/1 23/30/1 24/31/1
f 25/32/1 23/30/1 22/29/1
f 26/33/1 27/34/1 28/35/1
f 29/36/1 27/34/1 26/33/1
f 30/37/1 31/38/1 32/39/1
f 33/40/1 31/38/1 30/37/1
f 34/41/1 35/42/1 36/43/1
f 37/44/1 35/42/1 34/41/1
f 38/45/1 35/42/1 37/44/1
f 39/46/1 35/42/1 38/45/1
f 40/47/1 35/42/1 39/46/1
f 41/48/1 35/42/1 40/47/1
f 42/49/1 35/42/1 41/48/1
f 43/50/1 35/42/1 42/49/1
f 44/51/1 45/52/1 46/53/1
f 47/54/1 45/52/1 44/51/1
f 48/55/2 49/56/2 50/57/2
f 50/57/2 49/56/2 51/58/2
f 51/58/2 49/56/2 52/59/2
f 52/59/2 49/56/2 53/60/2
f 53/60/2 49/56/2 54/61/2
f 54/61/2 49/56/2 55/62/2
f 55/62/2 49/56/2 56/63/2
f 56/63/2 49/56/2 57/64/2
f 58/65/2 59/66/2 60/67/2
f 60/67/2 59/66/2 61/68/2
f 62/69/2 63/70/2 64/71/2
f 64/71/2 63/70/2 65/72/2
f 66/73/2 67/74/2 68/75/2
f 68/75/2 67/74/2 69/76/2
f 70/77/2 71/78/2 72/79/2
f 72/79/2 71/78/2 73/80/2
f 74/81/2 75/82/2 76/83/2
f 76/83/2 75/82/2 77/84/2
f 74/81/2 76/83/2 78/85/2
f 76/86/2 77/87/2 78/88/2
f 77/84/2 75/82/2 79/89/2
f 78/88/2 77/87/2 79/90/2
f 79/89/2 75/82/2 80/91/2
f 74/81/2 78/85/2 81/92/2
f 81/92/2 78/85/2 82/93/2
f 79/94/2 80/95/2 83/96/2
f 80/91/2 75/82/2 84/97/2
f 83/96/2 80/95/2 84/98/2
f 84/97/2 75/82/2 85/99/2
f 85/99/2 75/82/2 86/100/2
f 86/100/2 75/82/2 87/101/2
f 87/101/2 75/82/2 88/102/2
f 88/102/2 75/82/2 89/103/2
f 89/103/2 75/82/2 90/104/2
f 90/104/2 75/82/2 91/105/2
f 91/105/2 75/82/2 92/106/2
f 92/106/2 75/82/2 93/107/2
f 93/107/2 75/82/2 94/108/2
f 95/109/3 96/110/3 97/111/3
f 98/112/3 96/110/3 95/109/3
f 99/113/3 100/114/3 101/115/3
f 102/116/3 100/114/3 99/113/3
f 103/117/3 104/118/3 105/119/3
f 106/120/3 104/118/3 103/117/3
f 107/121/3 108/122/3 109/123/3
f 110/124/3 108/122/3 107/121/3
f 111/125/3 112/126/3 113/127/3
f 114/128/3 112/126/3 111/125/3
f 115/129/3 116/130/3 117/131/3
f 118/132/3 116/130/3 115/129/3
f 119/133/3 120/134/3 121/135/3
f 122/136/3 120/134/3 119/133/3
f 123/137/3 124/138/3 125/139/3
f 126/140/3 124/138/3 123/137/3
f 127/141/3 128/142/3 129/143/3
f 130/144/3 128/142/3 127/141/3
f 131/145/3 132/146/3 133/147/3
f 134/148/3 132/146/3 131/145/3
f 135/149/3 136/150/3 137/151/3
f 138/152/3 135/149/3 139/153/3
f 140/154/3 135/149/3 138/152/3
f 141/155/3 135/149/3 140/154/3
f 142/156/3 136/150/3 135/149/3
f 142/156/3 135/149/3 141/155/3
f 143/157/3 136/150/3 142/156/3
f 144/158/3 136/150/3 143/157/3
f 145/159/3 146/160/3 147/161/3
f 148/162/3 146/160/3 145/159/3
f 149/163/3 150/164/3 151/165/3
f 152/166/3 150/164/3 149/163/3
f 153/167/3 154/168/3 155/169/3
f 156/170/3 154/168/3 153/167/3
f 157/171/3 158/172/3 159/173/3
f 160/174/3 158/172/3 157/171/3
f 161/175/4 162/176/4 163/177/4
f 163/177/4 162/176/4 164/178/4
f 165/179/4 166/180/4 167/181/4
f 167/181/4 166/180/4 168/182/4
f 169/183/4 170/184/4 171/185/4
f 171/185/4 170/184/4 172/186/4
f 173/187/4 174/188/4 175/189/4
f 175/189/4 174/188/4 176/190/4
f 177/191/4 178/192/4 179/193/4
f 179/193/4 178/192/4 180/194/4
f 181/195/4 182/196/4 183/197/4
f 183/197/4 182/196/4 184/198/4
f 185/199/5 186/200/5 187/201/5
f 188/202/5 186/200/5 185/199/5
f 189/203/5 185/199/5 187/201/5
f 189/204/5 188/205/5 185/206/5
f 190/207/5 186/200/5 188/202/5
f 190/208/5 188/205/5 189/204/5
f 191/209/5 189/203/5 187/201/5
f 191/209/5 190/207/5 189/203/5
f 192/210/5 186/200/5 190/207/5
f 192/210/5 190/207/5 191/209/5
f 193/211/6 194/212/6 195/213/6
f 195/213/6 194/212/6 196/214/6
f 197/215/6 198/216/6 199/217/6
f 199/217/6 198/216/6 200/218/6
f 201/219/6 202/220/6 203/221/6
f 203/221/6 202/220/6 204/222/6
f 204/222/6 202/220/6 205/223/6
f 205/223/6 202/220/6 206/224/6
f 206/224/6 202/220/6 207/225/6
f 207/225/6 202/220/6 208/226/6
f 204/227/6 205/228/6 209/229/6
f 205/223/6 206/224/6 210/230/6
f 209/229/6 205/228/6 210/231/6
f 206/232/6 207/233/6 211/234/6
f 210/230/6 206/224/6 211/235/6
f 211/234/6 207/233/6 212/236/6
f 213/237/6 214/238/6 215/239/6
f 215/239/6 214/238/6 216/240/6
f 217/241/6 218/242/6 219/243/6
f 219/243/6 218/242/6 220/244/6
f 221/245/6 222/246/6 223/247/6
f 223/247/6 222/246/6 224/248/6
f 225/249/6 226/250/6 227/251/6
f 227/251/6 226/250/6 228/252/6
f 229/253/6 230/254/6 231/255/6
f 231/255/6 230/254/6 232/256/6
f 233/257/6 234/258/6 235/259/6
f 235/259/6 234/258/6 236/260/6
f 237/261/6 238/262/6 239/263/6
f 239/263/6 238/262/6 240/264/6
f 241/265/6 242/266/6 243/267/6
f 243/267/6 242/266/6 244/268/6
f 245/269/6 246/270/6 247/271/6
f 247/271/6 246/270/6 248/272/6
f 249/273/6 250/274/6 251/275/6
f 251/275/6 250/274/6 252/276/6
f 253/277/6 254/278/6 255/279/6
f 255/279/6 254/278/6 256/280/6
f 257/281/6 258/282/6 259/283/6
f 259/283/6 258/282/6 260/284/6
f 261/285/6 262/286/6 263/287/6
f 263/287/6 262/286/6 264/288/6
f 264/288/6 262/286/6 265/289/6
f 265/289/6 262/286/6 266/290/6
f 266/290/6 262/286/6 267/291/6
f 267/291/6 262/286/6 268/292/6
f 268/292/6 262/286/6 269/293/6
f 269/293/6 262/286/6 270/294/6
f 261/285/6 263/287/6 271/295/6
f 264/288/6 265/289/6 272/296/6
f 272/296/6 265/289/6 273/297/6
f 266/290/6 267/291/6 274/298/6
f 274/298/6 267/291/6 275/299/6
f 268/292/6 269/293/6 276/300/6
f 276/300/6 269/293/6 277/301/6
f 270/294/6 262/286/6 278/302/6
f 276/300/6 277/301/6 279/303/6
f 277/301/6 278/302/6 279/303/6
f 274/298/6 275/299/6 279/303/6
f 261/285/6 271/295/6 279/303/6
f 275/299/6 276/300/6 279/303/6
f 272/296/6 273/297/6 279/303/6
f 273/297/6 274/298/6 279/303/6
f 271/295/6 272/296/6 279/303/6
f 278/302/6 262/286/6 280/304/6
f 279/303/6 278/302/6 280/304/6
