# Blender v2.80 (sub 75) OBJ File: ''
# www.blender.org
mtllib 9.mtl
o 9
v -1.050001 -0.012671 0.485907
v -1.050001 -0.412671 -0.514093
v -1.050001 -0.412671 0.485907
v -1.050001 -0.012671 -0.514093
v -1.050001 1.187329 0.485907
v -1.050001 1.187329 -0.514093
v -0.950001 1.287329 0.485907
v -0.950001 1.187329 -0.514093
v -0.950001 1.187329 0.485907
v -0.950001 1.287329 -0.514093
v -0.750001 1.387329 0.485907
v -0.750001 1.287329 -0.514093
v -0.750001 1.287329 0.485907
v -0.750001 1.387329 -0.514093
v -0.650001 -1.312671 0.685907
v -0.650001 -1.512671 -0.514094
v -0.650001 -1.512671 0.685907
v -0.650001 -1.312671 0.485907
v -0.650001 -1.312671 -0.514094
v -0.650001 -0.612671 0.485907
v -0.650001 -0.612671 -0.514093
v -0.650001 0.787329 0.485907
v -0.650001 0.787329 -0.514093
v 0.149999 -1.312671 0.685907
v 0.149999 -1.512671 -0.514094
v 0.149999 -1.512671 0.685907
v 0.149999 -1.312671 0.485907
v 0.149999 -1.312671 -0.514094
v 0.149999 -0.612671 0.385907
v 0.149999 -0.612671 -0.514093
v 0.149999 -0.412671 0.485907
v 0.149999 -0.412671 0.385907
v 0.149999 -0.412671 -0.514093
v 0.749999 -0.012671 0.485907
v 0.749999 -0.412671 -0.514093
v 0.749999 -0.412671 0.485907
v 0.749999 -0.012671 -0.514093
v 0.749999 0.787329 0.485907
v 0.749999 0.787329 -0.514093
v -0.750001 -0.412671 0.485907
v -0.750001 -0.412671 -0.514093
v -0.750001 -0.012671 0.485907
v -0.750001 -0.012671 -0.514093
v -0.750001 0.787329 0.485907
v -0.750001 0.787329 -0.514093
v -0.150001 -1.512671 0.685907
v -0.150001 -1.512671 -0.514094
v -0.150001 -1.312671 0.685907
v -0.150001 -1.312671 0.485907
v -0.150001 -1.312671 -0.514094
v -0.150001 -0.612671 0.385907
v -0.150001 -0.612671 -0.514093
v -0.150001 -0.412671 0.485907
v -0.150001 -0.412671 0.385907
v -0.150001 -0.412671 -0.514093
v 0.649999 -1.512671 0.685907
v 0.649999 -1.512671 -0.514094
v 0.649999 -1.312671 0.685907
v 0.649999 -1.312671 0.485907
v 0.649999 -1.312671 -0.514094
v 0.649999 -0.612671 0.485907
v 0.649999 -0.612671 -0.514093
v 0.649999 0.787329 0.485907
v 0.649999 0.787329 -0.514093
v 0.749999 1.287329 0.485907
v 0.749999 1.287329 -0.514093
v 0.749999 1.387329 0.485907
v 0.749999 1.387329 -0.514093
v 0.949999 1.187329 0.485907
v 0.949999 1.187329 -0.514093
v 0.949999 1.287329 0.485907
v 0.949999 1.287329 -0.514093
v 1.049999 -0.412671 0.485907
v 1.049999 -0.412671 -0.514093
v 1.049999 -0.012671 0.485907
v 1.049999 -0.012671 -0.514093
v 1.049999 1.187329 0.485907
v 1.049999 1.187329 -0.514093
v -0.150001 -1.512671 0.685907
v -0.650001 -1.312671 0.685907
v -0.650001 -1.512671 0.685907
v -0.150001 -1.312671 0.685907
v 0.649999 -1.512671 0.685907
v 0.149999 -1.312671 0.685907
v 0.149999 -1.512671 0.685907
v 0.649999 -1.312671 0.685907
v -0.950001 1.187329 0.485907
v -1.050001 1.187329 0.485907
v -1.050001 -0.012671 0.485907
v -0.750001 -0.412671 0.485907
v -1.050001 -0.412671 0.485907
v -0.750001 -0.012671 0.485907
v -0.950001 1.287329 0.485907
v -0.750001 0.787329 0.485907
v -0.750001 1.287329 0.485907
v -0.650001 0.787329 0.485907
v -0.750001 1.387329 0.485907
v -0.250001 -0.612671 0.485907
v -0.650001 -0.612671 0.485907
v -0.650001 -1.312671 0.485907
v -0.250001 -0.012671 0.485907
v -0.250001 1.387329 0.485907
v -0.150001 -1.312671 0.485907
v -0.150001 -0.412671 0.485907
v 0.149999 -0.412671 0.485907
v 0.249999 -0.612671 0.485907
v 0.149999 -1.312671 0.485907
v 0.249999 -0.012671 0.485907
v 0.249999 1.387329 0.485907
v 0.649999 -1.312671 0.485907
v 0.649999 -0.612671 0.485907
v 0.649999 0.787329 0.485907
v 0.749999 0.787329 0.485907
v 0.749999 1.287329 0.485907
v 0.749999 1.387329 0.485907
v 0.949999 1.187329 0.485907
v 0.749999 -0.012671 0.485907
v 0.949999 1.287329 0.485907
v 1.049999 -0.412671 0.485907
v 0.749999 -0.412671 0.485907
v 1.049999 -0.012671 0.485907
v 1.049999 1.187329 0.485907
v -1.050001 -0.012671 -0.514093
v -1.050001 1.187329 -0.514093
v -0.950001 1.187329 -0.514093
v -1.050001 -0.412671 -0.514093
v -0.750001 -0.412671 -0.514093
v -0.950001 1.287329 -0.514093
v -0.750001 -0.012671 -0.514093
v -0.750001 0.787329 -0.514093
v -0.750001 1.287329 -0.514093
v -0.750001 1.387329 -0.514093
v -0.650001 0.787329 -0.514093
v -0.650001 -1.512671 -0.514094
v -0.650001 -1.312671 -0.514094
v -0.150001 -1.512671 -0.514094
v -0.650001 -0.612671 -0.514093
v -0.150001 -1.312671 -0.514094
v -0.150001 -0.612671 -0.514093
v -0.150001 -0.412671 -0.514093
v 0.149999 -0.412671 -0.514093
v 0.149999 -1.512671 -0.514094
v 0.149999 -1.312671 -0.514094
v 0.649999 -1.512671 -0.514094
v 0.149999 -0.612671 -0.514093
v 0.649999 -1.312671 -0.514094
v 0.649999 -0.612671 -0.514093
v 0.649999 0.787329 -0.514093
v 0.749999 0.787329 -0.514093
v 0.749999 1.287329 -0.514093
v 0.749999 1.387329 -0.514093
v 0.749999 -0.012671 -0.514093
v 0.949999 1.187329 -0.514093
v 0.949999 1.287329 -0.514093
v 0.749999 -0.412671 -0.514093
v 1.049999 -0.412671 -0.514093
v 1.049999 -0.012671 -0.514093
v 1.049999 1.187329 -0.514093
v -0.650001 -1.512671 -0.514094
v -0.150001 -1.512671 0.685907
v -0.650001 -1.512671 0.685907
v -0.150001 -1.512671 -0.514094
v 0.149999 -1.512671 -0.514094
v 0.649999 -1.512671 0.685907
v 0.149999 -1.512671 0.685907
v 0.649999 -1.512671 -0.514094
v -0.150001 -0.412671 0.385907
v 0.149999 -0.412671 0.485907
v -0.150001 -0.412671 0.485907
v 0.149999 -0.412671 0.385907
v -1.050001 -0.412671 -0.514093
v -0.750001 -0.412671 0.485907
v -1.050001 -0.412671 0.485907
v -0.750001 -0.412671 -0.514093
v -0.150001 -0.412671 -0.514093
v 0.149999 -0.412671 -0.514093
v 0.749999 -0.412671 -0.514093
v 1.049999 -0.412671 0.485907
v 0.749999 -0.412671 0.485907
v 1.049999 -0.412671 -0.514093
v -0.750001 0.787329 -0.514093
v -0.650001 0.787329 0.485907
v -0.750001 0.787329 0.485907
v -0.650001 0.787329 -0.514093
v 0.649999 0.787329 -0.514093
v 0.749999 0.787329 0.485907
v 0.649999 0.787329 0.485907
v 0.749999 0.787329 -0.514093
v -0.650001 -1.312671 0.685907
v -0.150001 -1.312671 0.685907
v -0.650001 -1.312671 0.485907
v -0.150001 -1.312671 0.485907
v 0.149999 -1.312671 0.685907
v 0.649999 -1.312671 0.685907
v 0.149999 -1.312671 0.485907
v 0.649999 -1.312671 0.485907
v -1.050001 1.187329 0.485907
v -0.950001 1.187329 0.485907
v -1.050001 1.187329 -0.514093
v -0.950001 1.187329 -0.514093
v 0.949999 1.187329 0.485907
v 1.049999 1.187329 0.485907
v 0.949999 1.187329 -0.514093
v 1.049999 1.187329 -0.514093
v -0.950001 1.287329 0.485907
v -0.750001 1.287329 0.485907
v -0.950001 1.287329 -0.514093
v -0.750001 1.287329 -0.514093
v 0.749999 1.287329 0.485907
v 0.949999 1.287329 0.485907
v 0.749999 1.287329 -0.514093
v 0.949999 1.287329 -0.514093
v -0.750001 1.387329 0.485907
v -0.250001 1.387329 0.485907
v -0.250001 1.387329 0.385907
v 0.249999 1.387329 0.485907
v 0.749999 1.387329 0.485907
v 0.249999 1.387329 0.385907
v -0.250001 1.387329 -0.414093
v 0.249999 1.387329 -0.414093
v -0.750001 1.387329 -0.514093
v 0.749999 1.387329 -0.514093
vt 0.033203 0.500000
vt 0.033203 0.500000
vt 0.033203 0.500000
vt 0.033203 0.500000
vt 0.958984 0.500000
vt 0.958984 0.500000
vt 0.958984 0.500000
vt 0.958984 0.500000
vt 0.958984 0.500000
vt 0.958984 0.500000
vt 0.958984 0.500000
vt 0.958984 0.500000
vt 0.958984 0.500000
vt 0.958984 0.500000
vt 0.958984 0.500000
vt 0.958984 0.500000
vt 0.994141 0.500000
vt 0.994141 0.500000
vt 0.994141 0.500000
vt 0.994141 0.500000
vt 0.994141 0.500000
vt 0.369141 0.500000
vt 0.369141 0.500000
vt 0.369141 0.500000
vt 0.369141 0.500000
vt 0.958984 0.500000
vt 0.958984 0.500000
vt 0.958984 0.500000
vt 0.958984 0.500000
vt 0.994141 0.500000
vt 0.994141 0.500000
vt 0.994141 0.500000
vt 0.994141 0.500000
vt 0.994141 0.500000
vt 0.369141 0.500000
vt 0.369141 0.500000
vt 0.369141 0.500000
vt 0.369141 0.500000
vt 0.369141 0.500000
vt 0.958984 0.500000
vt 0.958984 0.500000
vt 0.958984 0.500000
vt 0.369141 0.500000
vt 0.958984 0.500000
vt 0.033203 0.500000
vt 0.033203 0.500000
vt 0.033203 0.500000
vt 0.033203 0.500000
vt 0.958984 0.500000
vt 0.958984 0.500000
vt 0.958984 0.500000
vt 0.958984 0.500000
vt 0.033203 0.500000
vt 0.033203 0.500000
vt 0.033203 0.500000
vt 0.033203 0.500000
vt 0.958984 0.500000
vt 0.958984 0.500000
vt 0.958984 0.500000
vt 0.958984 0.500000
vt 0.994141 0.500000
vt 0.994141 0.500000
vt 0.994141 0.500000
vt 0.994141 0.500000
vt 0.994141 0.500000
vt 0.369141 0.500000
vt 0.369141 0.500000
vt 0.369141 0.500000
vt 0.369141 0.500000
vt 0.369141 0.500000
vt 0.958984 0.500000
vt 0.958984 0.500000
vt 0.958984 0.500000
vt 0.369141 0.500000
vt 0.958984 0.500000
vt 0.994141 0.500000
vt 0.994141 0.500000
vt 0.994141 0.500000
vt 0.994141 0.500000
vt 0.994141 0.500000
vt 0.369141 0.500000
vt 0.369141 0.500000
vt 0.369141 0.500000
vt 0.369141 0.500000
vt 0.958984 0.500000
vt 0.958984 0.500000
vt 0.958984 0.500000
vt 0.958984 0.500000
vt 0.958984 0.500000
vt 0.958984 0.500000
vt 0.958984 0.500000
vt 0.958984 0.500000
vt 0.958984 0.500000
vt 0.958984 0.500000
vt 0.958984 0.500000
vt 0.958984 0.500000
vt 0.033203 0.500000
vt 0.033203 0.500000
vt 0.033203 0.500000
vt 0.033203 0.500000
vt 0.958984 0.500000
vt 0.958984 0.500000
vt 0.958984 0.500000
vt 0.958984 0.500000
vt 0.994141 0.500000
vt 0.994141 0.500000
vt 0.994141 0.500000
vt 0.994141 0.500000
vt 0.994141 0.500000
vt 0.994141 0.500000
vt 0.994141 0.500000
vt 0.994141 0.500000
vt 0.958984 0.500000
vt 0.958984 0.500000
vt 0.958984 0.500000
vt 0.033203 0.500000
vt 0.033203 0.500000
vt 0.033203 0.500000
vt 0.958984 0.500000
vt 0.958984 0.500000
vt 0.033203 0.500000
vt 0.958984 0.500000
vt 0.958984 0.500000
vt 0.958984 0.500000
vt 0.958984 0.500000
vt 0.369141 0.500000
vt 0.369141 0.500000
vt 0.369141 0.500000
vt 0.958984 0.500000
vt 0.958984 0.500000
vt 0.958984 0.500000
vt 0.958984 0.500000
vt 0.369141 0.500000
vt 0.369141 0.500000
vt 0.369141 0.500000
vt 0.369141 0.500000
vt 0.369141 0.500000
vt 0.369141 0.500000
vt 0.279297 0.500000
vt 0.279297 0.500000
vt 0.279297 0.500000
vt 0.369141 0.500000
vt 0.279297 0.500000
vt 0.369141 0.500000
vt 0.958984 0.500000
vt 0.958984 0.500000
vt 0.958984 0.500000
vt 0.369141 0.500000
vt 0.958984 0.500000
vt 0.958984 0.500000
vt 0.958984 0.500000
vt 0.958984 0.500000
vt 0.958984 0.500000
vt 0.958984 0.500000
vt 0.958984 0.500000
vt 0.958984 0.500000
vt 0.033203 0.500000
vt 0.033203 0.500000
vt 0.033203 0.500000
vt 0.958984 0.500000
vt 0.033203 0.500000
vt 0.958984 0.500000
vt 0.958984 0.500000
vt 0.958984 0.500000
vt 0.958984 0.500000
vt 0.033203 0.500000
vt 0.033203 0.500000
vt 0.033203 0.500000
vt 0.958984 0.500000
vt 0.958984 0.500000
vt 0.033203 0.500000
vt 0.958984 0.500000
vt 0.958984 0.500000
vt 0.958984 0.500000
vt 0.958984 0.500000
vt 0.994141 0.500000
vt 0.994141 0.500000
vt 0.994141 0.500000
vt 0.369141 0.500000
vt 0.369141 0.500000
vt 0.369141 0.500000
vt 0.994141 0.500000
vt 0.958984 0.500000
vt 0.958984 0.500000
vt 0.369141 0.500000
vt 0.958984 0.500000
vt 0.958984 0.500000
vt 0.994141 0.500000
vt 0.994141 0.500000
vt 0.994141 0.500000
vt 0.369141 0.500000
vt 0.369141 0.500000
vt 0.369141 0.500000
vt 0.994141 0.500000
vt 0.958984 0.500000
vt 0.958984 0.500000
vt 0.369141 0.500000
vt 0.958984 0.500000
vt 0.958984 0.500000
vt 0.958984 0.500000
vt 0.958984 0.500000
vt 0.958984 0.500000
vt 0.958984 0.500000
vt 0.958984 0.500000
vt 0.033203 0.500000
vt 0.033203 0.500000
vt 0.033203 0.500000
vt 0.958984 0.500000
vt 0.033203 0.500000
vt 0.958984 0.500000
vt 0.994141 0.500000
vt 0.994141 0.500000
vt 0.994141 0.500000
vt 0.994141 0.500000
vt 0.994141 0.500000
vt 0.994141 0.500000
vt 0.994141 0.500000
vt 0.994141 0.500000
vt 0.369141 0.500000
vt 0.369141 0.500000
vt 0.369141 0.500000
vt 0.369141 0.500000
vt 0.033203 0.500000
vt 0.033203 0.500000
vt 0.033203 0.500000
vt 0.033203 0.500000
vt 0.958984 0.500000
vt 0.958984 0.500000
vt 0.958984 0.500000
vt 0.958984 0.500000
vt 0.033203 0.500000
vt 0.033203 0.500000
vt 0.033203 0.500000
vt 0.033203 0.500000
vt 0.958984 0.500000
vt 0.958984 0.500000
vt 0.958984 0.500000
vt 0.958984 0.500000
vt 0.958984 0.500000
vt 0.958984 0.500000
vt 0.958984 0.500000
vt 0.958984 0.500000
vt 0.994141 0.500000
vt 0.994141 0.500000
vt 0.994141 0.500000
vt 0.994141 0.500000
vt 0.994141 0.500000
vt 0.994141 0.500000
vt 0.994141 0.500000
vt 0.994141 0.500000
vt 0.958984 0.500000
vt 0.958984 0.500000
vt 0.958984 0.500000
vt 0.958984 0.500000
vt 0.958984 0.500000
vt 0.958984 0.500000
vt 0.958984 0.500000
vt 0.958984 0.500000
vt 0.958984 0.500000
vt 0.958984 0.500000
vt 0.958984 0.500000
vt 0.958984 0.500000
vt 0.958984 0.500000
vt 0.958984 0.500000
vt 0.958984 0.500000
vt 0.958984 0.500000
vt 0.958984 0.500000
vt 0.958984 0.500000
vt 0.958984 0.500000
vt 0.279297 0.500000
vt 0.279297 0.500000
vt 0.279297 0.500000
vt 0.958984 0.500000
vt 0.958984 0.500000
vt 0.958984 0.500000
vt 0.279297 0.500000
vt 0.958984 0.500000
vt 0.033203 0.500000
vt 0.033203 0.500000
vt 0.033203 0.500000
vt 0.958984 0.500000
vt 0.033203 0.500000
vt 0.958984 0.500000
vt 0.958984 0.500000
vn -1.0000 0.0000 0.0000
vn 1.0000 0.0000 0.0000
vn 0.0000 0.0000 1.0000
vn 0.0000 0.0000 -1.0000
vn 0.0000 -1.0000 -0.0000
vn 0.0000 1.0000 0.0000
usemtl palette.013
s 1
f 1/1/1 2/2/1 3/3/1
f 4/4/1 2/2/1 1/1/1
f 5/5/1 4/6/1 1/7/1
f 6/8/1 4/6/1 5/5/1
f 7/9/1 8/10/1 9/11/1
f 10/12/1 8/10/1 7/9/1
f 11/13/1 12/14/1 13/15/1
f 14/16/1 12/14/1 11/13/1
f 15/17/1 16/18/1 17/19/1
f 18/20/1 16/18/1 15/17/1
f 19/21/1 16/18/1 18/20/1
f 20/22/1 19/23/1 18/24/1
f 21/25/1 19/23/1 20/22/1
f 22/26/1 21/27/1 20/28/1
f 23/29/1 21/27/1 22/26/1
f 24/30/1 25/31/1 26/32/1
f 27/33/1 25/31/1 24/30/1
f 28/34/1 25/31/1 27/33/1
f 29/35/1 28/36/1 27/37/1
f 30/38/1 28/36/1 29/35/1
f 31/39/1 29/35/1 27/37/1
f 32/40/1 30/41/1 29/42/1
f 32/43/1 29/35/1 31/39/1
f 33/44/1 30/41/1 32/40/1
f 34/45/1 35/46/1 36/47/1
f 37/48/1 35/46/1 34/45/1
f 38/49/1 37/50/1 34/51/1
f 39/52/1 37/50/1 38/49/1
f 40/53/2 41/54/2 42/55/2
f 42/55/2 41/54/2 43/56/2
f 42/57/2 43/58/2 44/59/2
f 44/59/2 43/58/2 45/60/2
f 46/61/2 47/62/2 48/63/2
f 48/63/2 47/62/2 49/64/2
f 49/64/2 47/62/2 50/65/2
f 49/66/2 50/67/2 51/68/2
f 51/68/2 50/67/2 52/69/2
f 49/66/2 51/68/2 53/70/2
f 51/71/2 52/72/2 54/73/2
f 53/70/2 51/68/2 54/74/2
f 54/73/2 52/72/2 55/75/2
f 56/76/2 57/77/2 58/78/2
f 58/78/2 57/77/2 59/79/2
f 59/79/2 57/77/2 60/80/2
f 59/81/2 60/82/2 61/83/2
f 61/83/2 60/82/2 62/84/2
f 61/85/2 62/86/2 63/87/2
f 63/87/2 62/86/2 64/88/2
f 65/89/2 66/90/2 67/91/2
f 67/91/2 66/90/2 68/92/2
f 69/93/2 70/94/2 71/95/2
f 71/95/2 70/94/2 72/96/2
f 73/97/2 74/98/2 75/99/2
f 75/99/2 74/98/2 76/100/2
f 75/101/2 76/102/2 77/103/2
f 77/103/2 76/102/2 78/104/2
f 79/105/3 80/106/3 81/107/3
f 82/108/3 80/106/3 79/105/3
f 83/109/3 84/110/3 85/111/3
f 86/112/3 84/110/3 83/109/3
f 87/113/3 88/114/3 89/115/3
f 90/116/3 89/117/3 91/118/3
f 92/119/3 93/120/3 87/113/3
f 92/121/3 89/117/3 90/116/3
f 92/119/3 87/113/3 89/115/3
f 94/122/3 93/120/3 92/119/3
f 95/123/3 93/120/3 94/122/3
f 96/124/3 97/125/3 95/123/3
f 96/124/3 95/123/3 94/122/3
f 98/126/3 99/127/3 100/128/3
f 98/129/3 96/124/3 99/130/3
f 101/131/3 96/124/3 98/129/3
f 102/132/3 97/125/3 96/124/3
f 102/132/3 96/124/3 101/131/3
f 103/133/3 101/134/3 98/126/3
f 103/133/3 98/126/3 100/128/3
f 104/135/3 101/134/3 103/133/3
f 105/136/3 101/134/3 104/135/3
f 106/137/3 105/136/3 107/138/3
f 108/139/3 102/140/3 101/141/3
f 108/142/3 105/136/3 106/137/3
f 108/142/3 101/134/3 105/136/3
f 109/143/3 102/140/3 108/139/3
f 110/144/3 106/137/3 107/138/3
f 111/145/3 108/146/3 106/147/3
f 111/148/3 106/137/3 110/144/3
f 111/145/3 109/149/3 108/146/3
f 112/150/3 109/149/3 111/145/3
f 113/151/3 109/149/3 112/150/3
f 114/152/3 109/149/3 113/151/3
f 115/153/3 109/149/3 114/152/3
f 116/154/3 113/151/3 117/155/3
f 116/154/3 114/152/3 113/151/3
f 118/156/3 114/152/3 116/154/3
f 119/157/3 117/158/3 120/159/3
f 121/160/3 116/154/3 117/155/3
f 121/161/3 117/158/3 119/157/3
f 122/162/3 116/154/3 121/160/3
f 123/163/4 124/164/4 125/165/4
f 126/166/4 123/167/4 127/168/4
f 125/165/4 128/169/4 129/170/4
f 127/168/4 123/167/4 129/171/4
f 123/163/4 125/165/4 129/170/4
f 129/170/4 128/169/4 130/172/4
f 130/172/4 128/169/4 131/173/4
f 131/173/4 132/174/4 133/175/4
f 130/172/4 131/173/4 133/175/4
f 134/176/4 135/177/4 136/178/4
f 135/179/4 137/180/4 138/181/4
f 136/178/4 135/177/4 138/182/4
f 137/183/4 133/175/4 139/184/4
f 138/181/4 137/180/4 139/185/4
f 139/184/4 133/175/4 140/186/4
f 140/186/4 133/175/4 141/187/4
f 142/188/4 143/189/4 144/190/4
f 143/191/4 145/192/4 146/193/4
f 144/190/4 143/189/4 146/194/4
f 145/195/4 141/187/4 147/196/4
f 146/193/4 145/192/4 147/197/4
f 133/175/4 132/174/4 148/198/4
f 147/196/4 141/187/4 148/198/4
f 141/187/4 133/175/4 148/198/4
f 148/198/4 132/174/4 149/199/4
f 149/199/4 132/174/4 150/200/4
f 150/200/4 132/174/4 151/201/4
f 152/202/4 149/199/4 153/203/4
f 149/199/4 150/200/4 153/203/4
f 153/203/4 150/200/4 154/204/4
f 155/205/4 152/206/4 156/207/4
f 152/202/4 153/203/4 157/208/4
f 156/207/4 152/206/4 157/209/4
f 157/208/4 153/203/4 158/210/4
f 159/211/5 160/212/5 161/213/5
f 162/214/5 160/212/5 159/211/5
f 163/215/5 164/216/5 165/217/5
f 166/218/5 164/216/5 163/215/5
f 167/219/5 168/220/5 169/221/5
f 170/222/5 168/220/5 167/219/5
f 171/223/5 172/224/5 173/225/5
f 174/226/5 172/224/5 171/223/5
f 175/227/5 170/228/5 167/229/5
f 176/230/5 170/228/5 175/227/5
f 177/231/5 178/232/5 179/233/5
f 180/234/5 178/232/5 177/231/5
f 181/235/5 182/236/5 183/237/5
f 184/238/5 182/236/5 181/235/5
f 185/239/5 186/240/5 187/241/5
f 188/242/5 186/240/5 185/239/5
f 189/243/6 190/244/6 191/245/6
f 191/245/6 190/244/6 192/246/6
f 193/247/6 194/248/6 195/249/6
f 195/249/6 194/248/6 196/250/6
f 197/251/6 198/252/6 199/253/6
f 199/253/6 198/252/6 200/254/6
f 201/255/6 202/256/6 203/257/6
f 203/257/6 202/256/6 204/258/6
f 205/259/6 206/260/6 207/261/6
f 207/261/6 206/260/6 208/262/6
f 209/263/6 210/264/6 211/265/6
f 211/265/6 210/264/6 212/266/6
f 213/267/6 214/268/6 215/269/6
f 214/270/6 216/271/6 215/272/6
f 216/273/6 217/274/6 218/275/6
f 215/272/6 216/271/6 218/276/6
f 213/267/6 215/269/6 219/277/6
f 215/278/6 218/279/6 219/280/6
f 218/275/6 217/274/6 220/281/6
f 219/280/6 218/279/6 220/282/6
f 213/267/6 219/277/6 221/283/6
f 219/277/6 220/281/6 221/283/6
f 220/281/6 217/274/6 222/284/6
f 221/283/6 220/281/6 222/284/6
