%YAML 1.1
%TAG !u! tag:unity3d.com,2011:
--- !u!1 &1961376121378025170
GameObject:
  m_ObjectHideFlags: 0
  m_CorrespondingSourceObject: {fileID: 0}
  m_PrefabInstance: {fileID: 0}
  m_PrefabAsset: {fileID: 0}
  serializedVersion: 6
  m_Component:
  - component: {fileID: 1961376121378025168}
  - component: {fileID: 1961376121378025169}
  - component: {fileID: 1961376121378025175}
  m_Layer: 0
  m_Name: StatsHolder
  m_TagString: Stats
  m_Icon: {fileID: 0}
  m_NavMeshLayer: 0
  m_StaticEditorFlags: 0
  m_IsActive: 1
--- !u!4 &1961376121378025168
Transform:
  m_ObjectHideFlags: 0
  m_CorrespondingSourceObject: {fileID: 0}
  m_PrefabInstance: {fileID: 0}
  m_PrefabAsset: {fileID: 0}
  m_GameObject: {fileID: 1961376121378025170}
  m_LocalRotation: {x: 0, y: 0, z: 0, w: 1}
  m_LocalPosition: {x: 603.5, y: 339.5, z: 0}
  m_LocalScale: {x: 1, y: 1, z: 1}
  m_Children: []
  m_Father: {fileID: 0}
  m_RootOrder: 0
  m_LocalEulerAnglesHint: {x: 0, y: 0, z: 0}
--- !u!114 &1961376121378025169
MonoBehaviour:
  m_ObjectHideFlags: 0
  m_CorrespondingSourceObject: {fileID: 0}
  m_PrefabInstance: {fileID: 0}
  m_PrefabAsset: {fileID: 0}
  m_GameObject: {fileID: 1961376121378025170}
  m_Enabled: 1
  m_EditorHideFlags: 0
  m_Script: {fileID: 11500000, guid: 7412d260e74f1724385769a2b44c909d, type: 3}
  m_Name: 
  m_EditorClassIdentifier: 
  CurrentMoney: 0
  CurrentDay: 0
  ChickenEarnings: 0
  BurgerEarnings: 0
  ShakeEarnings: 0
  SpagEarnings: 0
  CurrentWorkers: []
--- !u!114 &1961376121378025175
MonoBehaviour:
  m_ObjectHideFlags: 0
  m_CorrespondingSourceObject: {fileID: 0}
  m_PrefabInstance: {fileID: 0}
  m_PrefabAsset: {fileID: 0}
  m_GameObject: {fileID: 1961376121378025170}
  m_Enabled: 1
  m_EditorHideFlags: 0
  m_Script: {fileID: 11500000, guid: de44beb88bd250545821e7ca3b539d17, type: 3}
  m_Name: 
  m_EditorClassIdentifier: 
  NumOfCounters: 0
  NumOfDrinkMachines: 0
  NumOfShakeMachines: 0
  ShakeMachineLvl: 1
  NumOfRiceMachines: 0
  RiceMachineLvl: 1
  NumOfFriesMachines: 0
  FriesMachineLvl: 1
  NumOfBurgerMachines: 0
  BurgerMachineLvl: 1
  NumOfChickenMachines: 0
  ChickenMachineLvl: 1
  NumOfPastaMachines: 0
  PastaMachineLvl: 1
