%YAML 1.1
%TAG !u! tag:unity3d.com,2011:
--- !u!114 &11400000
MonoBehaviour:
  m_ObjectHideFlags: 0
  m_CorrespondingSourceObject: {fileID: 0}
  m_PrefabInstance: {fileID: 0}
  m_PrefabAsset: {fileID: 0}
  m_GameObject: {fileID: 0}
  m_Enabled: 1
  m_EditorHideFlags: 0
  m_Script: {fileID: 11500000, guid: d9073948bbba23f468814ddf3dfc1177, type: 3}
  m_Name: EventWC6
  m_EditorClassIdentifier: 
  Description: Friends invited me to go drinking, should I go?
  Option1Description: Yes -- +15 Happiness -P300
  Option2Description: No thanks -- -5 Happiness
  Option1NegativeHappiness: 0
  Option1NegaH: 10
  Option1PostiveHappiness: 1
  Option1PosiH: 15
  Option1NegativeCash: 1
  Option1NegaCash: 300
  Option1PostiveCash: 0
  Option1PosiCash: 5
  Option1SkipDays: 0
  Option1DaysAmt: 2
  Option2NegativeHappiness: 1
  Option2NegaH: 5
  Option2PostiveHappiness: 0
  Option2PosiH: 4
  Option2NegativeCash: 0
  Option2NegaCash: 750
  Option2PostiveCash: 0
  Option2PosiCash: 0
  Option2SkipDays: 0
  Option2DaysAmt: 3
  ThisImage: {fileID: 21300000, guid: 9224857af39be1b42823ad5f5f7cf6d1, type: 3}
