# Blender v2.80 (sub 75) OBJ File: ''
# www.blender.org
mtllib Grill.mtl
o Grill
v -1.500000 0.471858 1.716187
v -1.500000 -1.028142 -1.483813
v -1.500000 -1.028142 1.916187
v -1.500000 0.471858 1.416187
v -1.500000 0.571858 1.916187
v -1.500000 0.571858 1.716187
v -1.500000 0.571858 1.416187
v -1.500000 0.571858 -1.183813
v -1.500000 1.671858 -1.183813
v -1.500000 1.671858 -1.483813
v 1.500000 -1.028142 1.916187
v 1.500000 -1.028142 -1.483813
v 1.500000 0.471858 1.716187
v 1.500000 0.471858 1.416187
v 1.500000 0.571858 1.916187
v 1.500000 0.571858 1.716187
v 1.500000 0.571858 1.416187
v 1.500000 0.571858 -1.183813
v 1.500000 1.671858 -1.183813
v 1.500000 1.671858 -1.483813
v 1.500000 -1.028142 1.916187
v -1.500000 0.571858 1.916187
v -1.500000 -1.028142 1.916187
v 1.500000 0.571858 1.916187
v 1.500000 0.471858 1.416187
v -1.500000 0.571858 1.416187
v -1.500000 0.471858 1.416187
v 1.500000 0.571858 1.416187
v 1.500000 0.571858 -1.183813
v -1.500000 1.671858 -1.183813
v -1.500000 0.571858 -1.183813
v 1.500000 1.671858 -1.183813
v -1.500000 0.471858 1.716187
v -1.500000 0.571858 1.716187
v 1.500000 0.471858 1.716187
v 1.500000 0.571858 1.716187
v -1.500000 -1.028142 -1.483813
v -1.500000 1.671858 -1.483813
v 1.500000 -1.028142 -1.483813
v 1.500000 1.671858 -1.483813
v -1.500000 -1.028142 -1.483813
v 1.500000 -1.028142 1.916187
v -1.500000 -1.028142 1.916187
v 1.500000 -1.028142 -1.483813
v -1.500000 0.471858 1.716187
v 1.500000 0.471858 1.716187
v -1.500000 0.471858 1.416187
v 1.500000 0.471858 1.416187
v -1.500000 0.571858 1.916187
v 1.500000 0.571858 1.916187
v -1.500000 0.571858 1.716187
v 1.500000 0.571858 1.716187
v -1.500000 0.571858 1.416187
v 1.500000 0.571858 1.416187
v -1.500000 0.571858 -1.183813
v 1.500000 0.571858 -1.183813
v -1.500000 1.671858 -1.183813
v 1.500000 1.671858 -1.183813
v -1.500000 1.671858 -1.483813
v 1.500000 1.671858 -1.483813
vt 0.986328 0.500000
vt 0.986328 0.500000
vt 0.986328 0.500000
vt 0.986328 0.500000
vt 0.986328 0.500000
vt 0.986328 0.500000
vt 0.986328 0.500000
vt 0.986328 0.500000
vt 0.986328 0.500000
vt 0.986328 0.500000
vt 0.986328 0.500000
vt 0.986328 0.500000
vt 0.986328 0.500000
vt 0.986328 0.500000
vt 0.986328 0.500000
vt 0.986328 0.500000
vt 0.986328 0.500000
vt 0.986328 0.500000
vt 0.986328 0.500000
vt 0.986328 0.500000
vt 0.986328 0.500000
vt 0.986328 0.500000
vt 0.986328 0.500000
vt 0.986328 0.500000
vt 0.986328 0.500000
vt 0.986328 0.500000
vt 0.986328 0.500000
vt 0.986328 0.500000
vt 0.986328 0.500000
vt 0.986328 0.500000
vt 0.986328 0.500000
vt 0.986328 0.500000
vt 0.986328 0.500000
vt 0.986328 0.500000
vt 0.986328 0.500000
vt 0.986328 0.500000
vt 0.986328 0.500000
vt 0.986328 0.500000
vt 0.986328 0.500000
vt 0.986328 0.500000
vt 0.986328 0.500000
vt 0.986328 0.500000
vt 0.986328 0.500000
vt 0.986328 0.500000
vt 0.986328 0.500000
vt 0.986328 0.500000
vt 0.986328 0.500000
vt 0.986328 0.500000
vt 0.986328 0.500000
vt 0.986328 0.500000
vt 0.986328 0.500000
vt 0.986328 0.500000
vt 0.986328 0.500000
vt 0.986328 0.500000
vt 0.986328 0.500000
vt 0.986328 0.500000
vt 0.986328 0.500000
vt 0.986328 0.500000
vt 0.986328 0.500000
vt 0.986328 0.500000
vn -1.0000 0.0000 0.0000
vn 1.0000 0.0000 0.0000
vn 0.0000 0.0000 1.0000
vn 0.0000 0.0000 -1.0000
vn 0.0000 -1.0000 -0.0000
vn 0.0000 1.0000 0.0000
usemtl palette.001
s 1
f 1/1/1 2/2/1 3/3/1
f 4/4/1 2/2/1 1/1/1
f 5/5/1 1/1/1 3/3/1
f 6/6/1 1/1/1 5/5/1
f 7/7/1 2/2/1 4/4/1
f 8/8/1 2/2/1 7/7/1
f 9/9/1 2/2/1 8/8/1
f 10/10/1 2/2/1 9/9/1
f 11/11/2 12/12/2 13/13/2
f 13/13/2 12/12/2 14/14/2
f 11/11/2 13/13/2 15/15/2
f 15/15/2 13/13/2 16/16/2
f 14/14/2 12/12/2 17/17/2
f 17/17/2 12/12/2 18/18/2
f 18/18/2 12/12/2 19/19/2
f 19/19/2 12/12/2 20/20/2
f 21/21/3 22/22/3 23/23/3
f 24/24/3 22/22/3 21/21/3
f 25/25/3 26/26/3 27/27/3
f 28/28/3 26/26/3 25/25/3
f 29/29/3 30/30/3 31/31/3
f 32/32/3 30/30/3 29/29/3
f 33/33/4 34/34/4 35/35/4
f 35/35/4 34/34/4 36/36/4
f 37/37/4 38/38/4 39/39/4
f 39/39/4 38/38/4 40/40/4
f 41/41/5 42/42/5 43/43/5
f 44/44/5 42/42/5 41/41/5
f 45/45/6 46/46/6 47/47/6
f 47/47/6 46/46/6 48/48/6
f 49/49/6 50/50/6 51/51/6
f 51/51/6 50/50/6 52/52/6
f 53/53/6 54/54/6 55/55/6
f 55/55/6 54/54/6 56/56/6
f 57/57/6 58/58/6 59/59/6
f 59/59/6 58/58/6 60/60/6
