%YAML 1.1
%TAG !u! tag:unity3d.com,2011:
--- !u!114 &11400000
MonoBehaviour:
  m_ObjectHideFlags: 0
  m_CorrespondingSourceObject: {fileID: 0}
  m_PrefabInstance: {fileID: 0}
  m_PrefabAsset: {fileID: 0}
  m_GameObject: {fileID: 0}
  m_Enabled: 1
  m_EditorHideFlags: 0
  m_Script: {fileID: 11500000, guid: 3c4ee57c76b640c499b239a97827e46c, type: 3}
  m_Name: EventNC15
  m_EditorClassIdentifier: 
  Description: I feel heavy...
  Effect: Had to take a day off
  NegativeHappiness: 0
  NegaH: 15
  PostiveHappiness: 0
  PosiH: 5
  NegativeCash: 0
  NegaCash: 200
  PostiveCash: 0
  PosiCash: 800
  SkipDays: 1
  DaysAmt: 2
  ThisImage: {fileID: 21300000, guid: 6795d4bd471fb0a4ea46a80fd88951fe, type: 3}
