%YAML 1.1
%TAG !u! tag:unity3d.com,2011:
--- !u!114 &11400000
MonoBehaviour:
  m_ObjectHideFlags: 0
  m_CorrespondingSourceObject: {fileID: 0}
  m_PrefabInstance: {fileID: 0}
  m_PrefabAsset: {fileID: 0}
  m_GameObject: {fileID: 0}
  m_Enabled: 1
  m_EditorHideFlags: 0
  m_Script: {fileID: 11500000, guid: 3c4ee57c76b640c499b239a97827e46c, type: 3}
  m_Name: EventNC3
  m_EditorClassIdentifier: 
  Description: Had to take the long way home
  Effect: -15 Happiness -P 50
  NegativeHappiness: 1
  NegaH: 15
  PostiveHappiness: 0
  PosiH: 0
  NegativeCash: 1
  NegaCash: 50
  PostiveCash: 0
  PosiCash: 10
  SkipDays: 0
  DaysAmt: 0
  ThisImage: {fileID: 21300000, guid: ea5aa57209c7e1041a61e30317f9c357, type: 3}
