%YAML 1.1
%TAG !u! tag:unity3d.com,2011:
--- !u!1001 &8625677442298310859
PrefabInstance:
  m_ObjectHideFlags: 0
  serializedVersion: 2
  m_Modification:
    m_TransformParent: {fileID: 0}
    m_Modifications:
    - target: {fileID: 5102873922142127573, guid: 3d052b1c30b74e740a2532561f0750fb,
        type: 3}
      propertyPath: m_Name
      value: PhoneCase Variant
      objectReference: {fileID: 0}
    - target: {fileID: 5102873922142127579, guid: 3d052b1c30b74e740a2532561f0750fb,
        type: 3}
      propertyPath: NameString
      value: Cute phone case
      objectReference: {fileID: 0}
    - target: {fileID: 5102873922142127579, guid: 3d052b1c30b74e740a2532561f0750fb,
        type: 3}
      propertyPath: PriceAmt
      value: 50
      objectReference: {fileID: 0}
    - target: {fileID: 5102873922142127579, guid: 3d052b1c30b74e740a2532561f0750fb,
        type: 3}
      propertyPath: Effect1
      value: +5 Happiness
      objectReference: {fileID: 0}
    - target: {fileID: 5102873922142127579, guid: 3d052b1c30b74e740a2532561f0750fb,
        type: 3}
      propertyPath: Effect2
      value: 
      objectReference: {fileID: 0}
    - target: {fileID: 5102873922142127579, guid: 3d052b1c30b74e740a2532561f0750fb,
        type: 3}
      propertyPath: HappinessAmt
      value: 5
      objectReference: {fileID: 0}
    - target: {fileID: 5102873922142127579, guid: 3d052b1c30b74e740a2532561f0750fb,
        type: 3}
      propertyPath: MaxHappinessAmt
      value: 0
      objectReference: {fileID: 0}
    - target: {fileID: 5102873922142127579, guid: 3d052b1c30b74e740a2532561f0750fb,
        type: 3}
      propertyPath: AddHappiness
      value: 1
      objectReference: {fileID: 0}
    - target: {fileID: 5102873922142127579, guid: 3d052b1c30b74e740a2532561f0750fb,
        type: 3}
      propertyPath: AddMaxHappiness
      value: 0
      objectReference: {fileID: 0}
    - target: {fileID: 5102873922142127579, guid: 3d052b1c30b74e740a2532561f0750fb,
        type: 3}
      propertyPath: IconToUse
      value: 
      objectReference: {fileID: 21300000, guid: 18eb0bcee97b6e940a38b797a9dc8b1b,
        type: 3}
    - target: {fileID: 5102873922142127578, guid: 3d052b1c30b74e740a2532561f0750fb,
        type: 3}
      propertyPath: m_LocalPosition.x
      value: 0
      objectReference: {fileID: 0}
    - target: {fileID: 5102873922142127578, guid: 3d052b1c30b74e740a2532561f0750fb,
        type: 3}
      propertyPath: m_LocalPosition.y
      value: 0
      objectReference: {fileID: 0}
    - target: {fileID: 5102873922142127578, guid: 3d052b1c30b74e740a2532561f0750fb,
        type: 3}
      propertyPath: m_LocalPosition.z
      value: 0
      objectReference: {fileID: 0}
    - target: {fileID: 5102873922142127578, guid: 3d052b1c30b74e740a2532561f0750fb,
        type: 3}
      propertyPath: m_LocalRotation.x
      value: 0
      objectReference: {fileID: 0}
    - target: {fileID: 5102873922142127578, guid: 3d052b1c30b74e740a2532561f0750fb,
        type: 3}
      propertyPath: m_LocalRotation.y
      value: 0
      objectReference: {fileID: 0}
    - target: {fileID: 5102873922142127578, guid: 3d052b1c30b74e740a2532561f0750fb,
        type: 3}
      propertyPath: m_LocalRotation.z
      value: 0
      objectReference: {fileID: 0}
    - target: {fileID: 5102873922142127578, guid: 3d052b1c30b74e740a2532561f0750fb,
        type: 3}
      propertyPath: m_LocalRotation.w
      value: 1
      objectReference: {fileID: 0}
    - target: {fileID: 5102873922142127578, guid: 3d052b1c30b74e740a2532561f0750fb,
        type: 3}
      propertyPath: m_RootOrder
      value: 0
      objectReference: {fileID: 0}
    - target: {fileID: 5102873922142127578, guid: 3d052b1c30b74e740a2532561f0750fb,
        type: 3}
      propertyPath: m_LocalEulerAnglesHint.x
      value: 0
      objectReference: {fileID: 0}
    - target: {fileID: 5102873922142127578, guid: 3d052b1c30b74e740a2532561f0750fb,
        type: 3}
      propertyPath: m_LocalEulerAnglesHint.y
      value: 0
      objectReference: {fileID: 0}
    - target: {fileID: 5102873922142127578, guid: 3d052b1c30b74e740a2532561f0750fb,
        type: 3}
      propertyPath: m_LocalEulerAnglesHint.z
      value: 0
      objectReference: {fileID: 0}
    - target: {fileID: 5102873922142127578, guid: 3d052b1c30b74e740a2532561f0750fb,
        type: 3}
      propertyPath: m_AnchoredPosition.x
      value: 0
      objectReference: {fileID: 0}
    - target: {fileID: 5102873922142127578, guid: 3d052b1c30b74e740a2532561f0750fb,
        type: 3}
      propertyPath: m_AnchoredPosition.y
      value: 0
      objectReference: {fileID: 0}
    - target: {fileID: 5102873922142127578, guid: 3d052b1c30b74e740a2532561f0750fb,
        type: 3}
      propertyPath: m_SizeDelta.x
      value: 960
      objectReference: {fileID: 0}
    - target: {fileID: 5102873922142127578, guid: 3d052b1c30b74e740a2532561f0750fb,
        type: 3}
      propertyPath: m_SizeDelta.y
      value: 227.3
      objectReference: {fileID: 0}
    - target: {fileID: 5102873922142127578, guid: 3d052b1c30b74e740a2532561f0750fb,
        type: 3}
      propertyPath: m_AnchorMin.x
      value: 0.5
      objectReference: {fileID: 0}
    - target: {fileID: 5102873922142127578, guid: 3d052b1c30b74e740a2532561f0750fb,
        type: 3}
      propertyPath: m_AnchorMin.y
      value: 0.5
      objectReference: {fileID: 0}
    - target: {fileID: 5102873922142127578, guid: 3d052b1c30b74e740a2532561f0750fb,
        type: 3}
      propertyPath: m_AnchorMax.x
      value: 0.5
      objectReference: {fileID: 0}
    - target: {fileID: 5102873922142127578, guid: 3d052b1c30b74e740a2532561f0750fb,
        type: 3}
      propertyPath: m_AnchorMax.y
      value: 0.5
      objectReference: {fileID: 0}
    - target: {fileID: 5102873922142127578, guid: 3d052b1c30b74e740a2532561f0750fb,
        type: 3}
      propertyPath: m_Pivot.x
      value: 0.5
      objectReference: {fileID: 0}
    - target: {fileID: 5102873922142127578, guid: 3d052b1c30b74e740a2532561f0750fb,
        type: 3}
      propertyPath: m_Pivot.y
      value: 0.5
      objectReference: {fileID: 0}
    - target: {fileID: 5102873921191813708, guid: 3d052b1c30b74e740a2532561f0750fb,
        type: 3}
      propertyPath: m_AnchoredPosition.x
      value: -314.3
      objectReference: {fileID: 0}
    - target: {fileID: 5102873921191813708, guid: 3d052b1c30b74e740a2532561f0750fb,
        type: 3}
      propertyPath: m_SizeDelta.x
      value: 415.1
      objectReference: {fileID: 0}
    - target: {fileID: 5102873921191813708, guid: 3d052b1c30b74e740a2532561f0750fb,
        type: 3}
      propertyPath: m_SizeDelta.y
      value: 77
      objectReference: {fileID: 0}
    m_RemovedComponents: []
  m_SourcePrefab: {fileID: 100100000, guid: 3d052b1c30b74e740a2532561f0750fb, type: 3}
