# Blender v2.80 (sub 75) OBJ File: ''
# www.blender.org
mtllib Clipboard.mtl
o Clipboard
v -0.950000 0.004958 1.328572
v -0.950000 -0.095042 -1.271428
v -0.950000 -0.095042 1.328572
v -0.950000 0.004958 -1.271428
v -0.750000 0.104958 1.228572
v -0.750000 0.004958 -0.971429
v -0.750000 0.004958 1.228572
v -0.750000 0.104958 -0.871428
v -0.750000 0.104958 -0.971429
v -0.750000 0.004958 -1.171428
v -0.750000 0.104958 -1.071428
v -0.750000 0.104958 -1.171428
v -0.750000 0.204958 -0.871428
v -0.750000 0.204958 -1.071428
v 0.750000 0.004958 1.228572
v 0.750000 0.004958 -0.971429
v 0.750000 0.104958 1.228572
v 0.750000 0.104958 -0.871428
v 0.750000 0.004958 -1.171428
v 0.750000 0.104958 -0.971429
v 0.750000 0.104958 -1.071428
v 0.750000 0.104958 -1.171428
v 0.750000 0.204958 -0.871428
v 0.750000 0.204958 -1.071428
v 0.950000 -0.095042 1.328572
v 0.950000 -0.095042 -1.271428
v 0.950000 0.004958 1.328572
v 0.950000 0.004958 -1.271428
v 0.950000 -0.095042 1.328572
v -0.950000 0.004958 1.328572
v -0.950000 -0.095042 1.328572
v 0.950000 0.004958 1.328572
v 0.750000 0.004958 1.228572
v -0.750000 0.104958 1.228572
v -0.750000 0.004958 1.228572
v 0.750000 0.104958 1.228572
v 0.750000 0.104958 -0.871428
v -0.750000 0.204958 -0.871428
v -0.750000 0.104958 -0.871428
v 0.750000 0.204958 -0.871428
v -0.750000 0.104958 -1.071428
v -0.750000 0.204958 -1.071428
v 0.750000 0.104958 -1.071428
v 0.750000 0.204958 -1.071428
v -0.750000 0.004958 -1.171428
v -0.750000 0.104958 -1.171428
v 0.750000 0.004958 -1.171428
v 0.750000 0.104958 -1.171428
v -0.950000 -0.095042 -1.271428
v -0.950000 0.004958 -1.271428
v 0.950000 -0.095042 -1.271428
v 0.950000 0.004958 -1.271428
v -0.950000 -0.095042 -1.271428
v 0.950000 -0.095042 1.328572
v -0.950000 -0.095042 1.328572
v 0.950000 -0.095042 -1.271428
v -0.950000 0.004958 1.328572
v 0.950000 0.004958 1.328572
v -0.750000 0.004958 1.228572
v 0.750000 0.004958 1.228572
v -0.750000 0.004958 -0.971429
v 0.750000 0.004958 -0.971429
v -0.750000 0.004958 -1.171428
v 0.750000 0.004958 -1.171428
v -0.950000 0.004958 -1.271428
v 0.950000 0.004958 -1.271428
v -0.750000 0.104958 1.228572
v 0.750000 0.104958 1.228572
v -0.750000 0.104958 -0.871428
v 0.750000 0.104958 -0.871428
v -0.750000 0.104958 -1.071428
v 0.750000 0.104958 -1.071428
v -0.750000 0.104958 -1.171428
v 0.750000 0.104958 -1.171428
v -0.750000 0.204958 -0.871428
v 0.750000 0.204958 -0.871428
v -0.750000 0.204958 -1.071428
v 0.750000 0.204958 -1.071428
vt 0.373047 0.500000
vt 0.373047 0.500000
vt 0.373047 0.500000
vt 0.373047 0.500000
vt 0.958984 0.500000
vt 0.958984 0.500000
vt 0.958984 0.500000
vt 0.958984 0.500000
vt 0.982422 0.500000
vt 0.982422 0.500000
vt 0.982422 0.500000
vt 0.958984 0.500000
vt 0.982422 0.500000
vt 0.982422 0.500000
vt 0.982422 0.500000
vt 0.982422 0.500000
vt 0.982422 0.500000
vt 0.958984 0.500000
vt 0.958984 0.500000
vt 0.958984 0.500000
vt 0.958984 0.500000
vt 0.982422 0.500000
vt 0.982422 0.500000
vt 0.982422 0.500000
vt 0.958984 0.500000
vt 0.982422 0.500000
vt 0.982422 0.500000
vt 0.982422 0.500000
vt 0.982422 0.500000
vt 0.982422 0.500000
vt 0.373047 0.500000
vt 0.373047 0.500000
vt 0.373047 0.500000
vt 0.373047 0.500000
vt 0.373047 0.500000
vt 0.373047 0.500000
vt 0.373047 0.500000
vt 0.373047 0.500000
vt 0.958984 0.500000
vt 0.958984 0.500000
vt 0.958984 0.500000
vt 0.958984 0.500000
vt 0.982422 0.500000
vt 0.982422 0.500000
vt 0.982422 0.500000
vt 0.982422 0.500000
vt 0.982422 0.500000
vt 0.982422 0.500000
vt 0.982422 0.500000
vt 0.982422 0.500000
vt 0.982422 0.500000
vt 0.982422 0.500000
vt 0.982422 0.500000
vt 0.982422 0.500000
vt 0.373047 0.500000
vt 0.373047 0.500000
vt 0.373047 0.500000
vt 0.373047 0.500000
vt 0.373047 0.500000
vt 0.373047 0.500000
vt 0.373047 0.500000
vt 0.373047 0.500000
vt 0.373047 0.500000
vt 0.373047 0.500000
vt 0.373047 0.500000
vt 0.373047 0.500000
vt 0.373047 0.500000
vt 0.373047 0.500000
vt 0.373047 0.500000
vt 0.373047 0.500000
vt 0.373047 0.500000
vt 0.373047 0.500000
vt 0.958984 0.500000
vt 0.958984 0.500000
vt 0.958984 0.500000
vt 0.958984 0.500000
vt 0.982422 0.500000
vt 0.982422 0.500000
vt 0.982422 0.500000
vt 0.982422 0.500000
vt 0.982422 0.500000
vt 0.982422 0.500000
vt 0.982422 0.500000
vt 0.982422 0.500000
vn -1.0000 0.0000 0.0000
vn 1.0000 0.0000 0.0000
vn 0.0000 0.0000 1.0000
vn 0.0000 0.0000 -1.0000
vn 0.0000 -1.0000 -0.0000
vn 0.0000 1.0000 0.0000
usemtl palette.002
s 1
f 1/1/1 2/2/1 3/3/1
f 4/4/1 2/2/1 1/1/1
f 5/5/1 6/6/1 7/7/1
f 8/8/1 6/6/1 5/5/1
f 9/9/1 10/10/1 6/11/1
f 9/12/1 6/6/1 8/8/1
f 11/13/1 10/10/1 9/9/1
f 12/14/1 10/10/1 11/13/1
f 13/15/1 9/9/1 8/16/1
f 13/15/1 11/13/1 9/9/1
f 14/17/1 11/13/1 13/15/1
f 15/18/2 16/19/2 17/20/2
f 17/20/2 16/19/2 18/21/2
f 16/22/2 19/23/2 20/24/2
f 18/21/2 16/19/2 20/25/2
f 20/24/2 19/23/2 21/26/2
f 21/26/2 19/23/2 22/27/2
f 18/28/2 20/24/2 23/29/2
f 20/24/2 21/26/2 23/29/2
f 23/29/2 21/26/2 24/30/2
f 25/31/2 26/32/2 27/33/2
f 27/33/2 26/32/2 28/34/2
f 29/35/3 30/36/3 31/37/3
f 32/38/3 30/36/3 29/35/3
f 33/39/3 34/40/3 35/41/3
f 36/42/3 34/40/3 33/39/3
f 37/43/3 38/44/3 39/45/3
f 40/46/3 38/44/3 37/43/3
f 41/47/4 42/48/4 43/49/4
f 43/49/4 42/48/4 44/50/4
f 45/51/4 46/52/4 47/53/4
f 47/53/4 46/52/4 48/54/4
f 49/55/4 50/56/4 51/57/4
f 51/57/4 50/56/4 52/58/4
f 53/59/5 54/60/5 55/61/5
f 56/62/5 54/60/5 53/59/5
f 57/63/6 58/64/6 59/65/6
f 59/65/6 58/64/6 60/66/6
f 57/63/6 59/65/6 61/67/6
f 60/66/6 58/64/6 62/68/6
f 57/63/6 61/67/6 63/69/6
f 62/68/6 58/64/6 64/70/6
f 57/63/6 63/69/6 65/71/6
f 63/69/6 64/70/6 65/71/6
f 64/70/6 58/64/6 66/72/6
f 65/71/6 64/70/6 66/72/6
f 67/73/6 68/74/6 69/75/6
f 69/75/6 68/74/6 70/76/6
f 71/77/6 72/78/6 73/79/6
f 73/79/6 72/78/6 74/80/6
f 75/81/6 76/82/6 77/83/6
f 77/83/6 76/82/6 78/84/6
