# Blender v2.80 (sub 75) OBJ File: ''
# www.blender.org
mtllib Trailer.mtl
o Trailer
v -1.370644 0.724139 1.339838
v -1.370644 0.624140 -1.260162
v -1.370644 0.624139 1.339838
v -1.370644 0.724140 -1.260162
v -1.270644 -0.775860 0.639838
v -1.270644 -0.975860 -0.860162
v -1.270644 -0.975860 0.639838
v -1.270644 -0.775860 -0.860162
v -1.270644 -0.475860 0.739838
v -1.270644 -0.775860 0.739838
v -1.270644 -0.775860 -0.960162
v -1.270644 -0.475860 -0.960162
v -1.170644 -0.375861 0.839838
v -1.170644 -0.475860 0.739838
v -1.170644 -0.475861 0.839838
v -1.170644 -0.475860 0.639838
v -1.170644 -0.175861 1.039838
v -1.170644 -0.375861 1.039838
v -1.170644 -0.175861 0.639838
v -1.170644 -0.475860 -0.860162
v -1.170644 -0.175860 0.439838
v -1.170644 -0.175860 -0.660162
v -1.170644 0.624139 0.639838
v -1.170644 0.624139 0.439838
v -1.170644 0.624140 -0.660162
v -1.170644 0.624140 -0.860162
v -1.070644 0.824139 1.139838
v -1.070644 0.724140 -1.060162
v -1.070644 0.724140 1.139838
v -1.070644 0.824140 -1.060162
v -0.770644 0.924140 0.739838
v -0.770644 0.824140 -0.760162
v -0.770644 0.824139 0.739838
v -0.770644 0.924140 -0.760162
v 0.329356 -0.875860 -1.060162
v 0.329356 -0.975860 -1.260162
v 0.329356 -0.975860 -0.860162
v 0.329356 -0.875860 -1.260162
v 0.329356 -0.775860 -0.860162
v 0.329356 -0.775860 -0.960162
v 0.329356 -0.775860 -1.060162
v 0.629356 -0.475860 -0.860162
v 0.629356 -0.775860 -0.960162
v 0.629356 -0.775860 -0.760162
v 0.629356 -0.475860 -0.960162
v 0.629356 -0.175860 -0.760162
v 0.629356 -0.175860 -0.860162
v 0.929356 0.624139 0.639838
v 0.929356 -0.175860 0.539838
v 0.929356 -0.175861 0.639838
v 0.929356 0.624139 0.539838
v 0.929356 0.624140 -0.760162
v 0.929356 -0.175860 -0.860162
v 0.929356 -0.175860 -0.760162
v 0.929356 0.624140 -0.860162
v 1.029356 -0.375861 0.839838
v 1.029356 -0.475860 0.739838
v 1.029356 -0.475861 0.839838
v 1.029356 -0.475860 0.639838
v 1.029356 -0.275860 1.039838
v 1.029356 -0.375861 1.039838
v 1.029356 -0.275860 0.639838
v 1.029356 -0.175860 0.439838
v 1.029356 -0.775860 -0.760162
v 1.029356 -0.775860 0.539838
v 1.029356 -0.175860 -0.660162
v 1.029356 0.624139 0.539838
v 1.029356 0.624139 0.439838
v 1.029356 0.624140 -0.660162
v 1.029356 0.624140 -0.760162
v -1.070644 -0.475861 0.839838
v -1.070644 -0.475860 0.739838
v -1.070644 -0.375861 0.839838
v -1.070644 -0.475860 0.639838
v -1.070644 -0.375861 1.039838
v -1.070644 -0.275860 1.039838
v -1.070644 -0.275860 0.639838
v -1.070644 -0.775860 0.539838
v -1.070644 -0.775860 -0.760162
v -1.070644 -0.175860 0.439838
v -1.070644 -0.175860 -0.660162
v -1.070644 0.624139 0.539838
v -1.070644 0.624139 0.439838
v -1.070644 0.624140 -0.660162
v -1.070644 0.624140 -0.760162
v -0.970644 -0.175861 0.639838
v -0.970644 -0.175860 0.539838
v -0.970644 0.624139 0.639838
v -0.970644 0.624139 0.539838
v -0.970644 -0.175860 -0.760162
v -0.970644 -0.175860 -0.860162
v -0.970644 0.624140 -0.760162
v -0.970644 0.624140 -0.860162
v 0.329356 -0.775860 -0.760162
v 0.329356 -0.775860 -0.960162
v 0.329356 -0.475860 -0.860162
v 0.329356 -0.475860 -0.960162
v 0.329356 -0.175860 -0.760162
v 0.329356 -0.175860 -0.860162
v 0.629356 -0.975860 -0.860162
v 0.629356 -0.975860 -1.260162
v 0.629356 -0.875860 -1.060162
v 0.629356 -0.875860 -1.260162
v 0.629356 -0.775860 -0.860162
v 0.629356 -0.775860 -0.960162
v 0.629356 -0.775860 -1.060162
v 0.829356 0.824139 0.739838
v 0.829356 0.824140 -0.760162
v 0.829356 0.924140 0.739838
v 0.829356 0.924140 -0.760162
v 1.129356 -0.975860 0.639838
v 1.129356 -0.975860 -0.860162
v 1.129356 -0.775860 0.639838
v 1.129356 -0.775860 -0.860162
v 1.129356 -0.475861 0.839838
v 1.129356 -0.475860 0.739838
v 1.129356 -0.375861 0.839838
v 1.129356 -0.475860 0.639838
v 1.129356 -0.375861 1.039838
v 1.129356 -0.175861 1.039838
v 1.129356 -0.475860 -0.860162
v 1.129356 -0.175861 0.639838
v 1.129356 -0.175860 0.439838
v 1.129356 -0.175860 -0.660162
v 1.129356 0.624139 0.639838
v 1.129356 0.624139 0.439838
v 1.129356 0.624140 -0.660162
v 1.129356 0.624140 -0.860162
v 1.129356 0.724140 1.139838
v 1.129356 0.724140 -1.060162
v 1.129356 0.824139 1.139838
v 1.129356 0.824140 -1.060162
v 1.229356 -0.775860 0.739838
v 1.229356 -0.775860 -0.960162
v 1.229356 -0.475860 0.739838
v 1.229356 -0.475860 -0.960162
v 1.429356 0.624139 1.339838
v 1.429356 0.624140 -1.260162
v 1.429356 0.724139 1.339838
v 1.429356 0.724140 -1.260162
v 1.429356 0.624139 1.339838
v -1.370644 0.724139 1.339838
v -1.370644 0.624139 1.339838
v 1.429356 0.724139 1.339838
v 1.129356 0.724140 1.139838
v -1.070644 0.824139 1.139838
v -1.070644 0.724140 1.139838
v 1.129356 0.824139 1.139838
v -1.070644 -0.375861 1.039838
v -1.170644 -0.175861 1.039838
v -1.170644 -0.375861 1.039838
v -1.070644 -0.275860 1.039838
v 1.029356 -0.275860 1.039838
v 1.129356 -0.375861 1.039838
v 1.029356 -0.375861 1.039838
v 1.129356 -0.175861 1.039838
v -1.070644 -0.475861 0.839838
v -1.170644 -0.375861 0.839838
v -1.170644 -0.475861 0.839838
v -1.070644 -0.375861 0.839838
v 1.129356 -0.475861 0.839838
v 1.029356 -0.375861 0.839838
v 1.029356 -0.475861 0.839838
v 1.129356 -0.375861 0.839838
v -1.170644 -0.475860 0.739838
v -1.270644 -0.475860 0.739838
v -1.270644 -0.775860 0.739838
v -1.070644 -0.475860 0.739838
v 0.829356 0.824139 0.739838
v -0.770644 0.924140 0.739838
v -0.770644 0.824139 0.739838
v 0.829356 0.924140 0.739838
v 1.029356 -0.475860 0.739838
v 1.129356 -0.475860 0.739838
v 1.229356 -0.775860 0.739838
v 1.229356 -0.475860 0.739838
v -0.970644 -0.175861 0.639838
v -1.170644 0.624139 0.639838
v -1.170644 -0.175861 0.639838
v -0.970644 0.624139 0.639838
v 1.029356 -0.475860 0.639838
v -1.070644 -0.275860 0.639838
v -1.070644 -0.475860 0.639838
v 1.029356 -0.275860 0.639838
v 1.129356 -0.975860 0.639838
v -1.270644 -0.775860 0.639838
v -1.270644 -0.975860 0.639838
v 1.129356 -0.775860 0.639838
v 1.129356 -0.175861 0.639838
v 0.929356 0.624139 0.639838
v 0.929356 -0.175861 0.639838
v 1.129356 0.624139 0.639838
v -1.070644 -0.175860 -0.660162
v -1.170644 0.624140 -0.660162
v -1.170644 -0.175860 -0.660162
v -1.070644 0.624140 -0.660162
v 1.129356 -0.175860 -0.660162
v 1.029356 0.624140 -0.660162
v 1.029356 -0.175860 -0.660162
v 1.129356 0.624140 -0.660162
v -0.970644 -0.175860 -0.760162
v -1.070644 0.624140 -0.760162
v -1.070644 -0.775860 -0.760162
v -0.970644 0.624140 -0.760162
v 0.329356 -0.775860 -0.760162
v 0.329356 -0.175860 -0.760162
v 0.929356 -0.175860 -0.760162
v 0.629356 -0.175860 -0.760162
v 0.629356 -0.775860 -0.760162
v 1.029356 -0.775860 -0.760162
v 0.929356 0.624140 -0.760162
v 1.029356 0.624140 -0.760162
v -1.070644 -0.775860 0.539838
v -1.070644 0.624139 0.539838
v -0.970644 -0.175860 0.539838
v -0.970644 0.624139 0.539838
v 0.929356 -0.175860 0.539838
v 1.029356 -0.775860 0.539838
v 0.929356 0.624139 0.539838
v 1.029356 0.624139 0.539838
v -1.170644 -0.175860 0.439838
v -1.170644 0.624139 0.439838
v -1.070644 -0.175860 0.439838
v -1.070644 0.624139 0.439838
v 1.029356 -0.175860 0.439838
v 1.029356 0.624139 0.439838
v 1.129356 -0.175860 0.439838
v 1.129356 0.624139 0.439838
v -0.770644 0.824140 -0.760162
v -0.770644 0.924140 -0.760162
v 0.829356 0.824140 -0.760162
v 0.829356 0.924140 -0.760162
v -1.170644 -0.475860 -0.860162
v -1.170644 0.624140 -0.860162
v -0.970644 -0.175860 -0.860162
v -0.970644 0.624140 -0.860162
v -1.270644 -0.975860 -0.860162
v -1.270644 -0.775860 -0.860162
v 0.329356 -0.975860 -0.860162
v 0.329356 -0.775860 -0.860162
v 0.329356 -0.475860 -0.860162
v 0.329356 -0.175860 -0.860162
v 0.629356 -0.475860 -0.860162
v 0.629356 -0.175860 -0.860162
v 0.929356 -0.175860 -0.860162
v 0.629356 -0.975860 -0.860162
v 0.629356 -0.775860 -0.860162
v 1.129356 -0.975860 -0.860162
v 1.129356 -0.775860 -0.860162
v 1.129356 -0.475860 -0.860162
v 0.929356 0.624140 -0.860162
v 1.129356 0.624140 -0.860162
v -1.270644 -0.775860 -0.960162
v -1.270644 -0.475860 -0.960162
v 0.329356 -0.775860 -0.960162
v 0.329356 -0.475860 -0.960162
v 0.629356 -0.775860 -0.960162
v 0.629356 -0.475860 -0.960162
v 1.229356 -0.775860 -0.960162
v 1.229356 -0.475860 -0.960162
v 0.329356 -0.875860 -1.060162
v 0.329356 -0.775860 -1.060162
v 0.629356 -0.875860 -1.060162
v 0.629356 -0.775860 -1.060162
v -1.070644 0.724140 -1.060162
v -1.070644 0.824140 -1.060162
v 1.129356 0.724140 -1.060162
v 1.129356 0.824140 -1.060162
v 0.329356 -0.975860 -1.260162
v 0.329356 -0.875860 -1.260162
v 0.629356 -0.975860 -1.260162
v 0.629356 -0.875860 -1.260162
v -1.370644 0.624140 -1.260162
v -1.370644 0.724140 -1.260162
v 1.429356 0.624140 -1.260162
v 1.429356 0.724140 -1.260162
v -1.270644 -0.975860 -0.860162
v 1.129356 -0.975860 0.639838
v -1.270644 -0.975860 0.639838
v 0.329356 -0.975860 -0.860162
v 0.629356 -0.975860 -0.860162
v 1.129356 -0.975860 -0.860162
v 0.329356 -0.975860 -1.260162
v 0.629356 -0.975860 -1.260162
v -1.270644 -0.775860 0.639838
v 1.229356 -0.775860 0.739838
v -1.270644 -0.775860 0.739838
v 1.129356 -0.775860 0.639838
v 1.129356 -0.775860 -0.860162
v -1.270644 -0.775860 -0.960162
v 0.329356 -0.775860 -0.860162
v -1.270644 -0.775860 -0.860162
v 0.329356 -0.775860 -0.960162
v 0.629356 -0.775860 -0.960162
v 0.629356 -0.775860 -0.860162
v 1.229356 -0.775860 -0.960162
v -1.170644 -0.475860 0.739838
v -1.070644 -0.475861 0.839838
v -1.170644 -0.475861 0.839838
v -1.070644 -0.475860 0.739838
v 1.029356 -0.475860 0.739838
v 1.129356 -0.475861 0.839838
v 1.029356 -0.475861 0.839838
v 1.129356 -0.475860 0.739838
v -1.170644 -0.375861 0.839838
v -1.070644 -0.375861 1.039838
v -1.170644 -0.375861 1.039838
v -1.070644 -0.375861 0.839838
v 1.029356 -0.375861 0.839838
v 1.129356 -0.375861 1.039838
v 1.029356 -0.375861 1.039838
v 1.129356 -0.375861 0.839838
v -1.070644 -0.275860 0.639838
v 1.029356 -0.275860 1.039838
v -1.070644 -0.275860 1.039838
v 1.029356 -0.275860 0.639838
v -1.170644 0.624139 0.639838
v 1.429356 0.624139 1.339838
v -1.370644 0.624139 1.339838
v -0.970644 0.624139 0.639838
v 0.929356 0.624139 0.639838
v 1.129356 0.624139 0.639838
v -0.970644 0.624139 0.539838
v 0.929356 0.624139 0.539838
v -1.170644 0.624139 0.439838
v -1.070644 0.624139 0.439838
v 1.029356 0.624139 0.539838
v -1.070644 0.624139 0.539838
v 1.029356 0.624139 0.439838
v 1.129356 0.624139 0.439838
v -1.170644 0.624140 -0.660162
v -1.070644 0.624140 -0.660162
v 1.029356 0.624140 -0.660162
v 1.129356 0.624140 -0.660162
v -1.070644 0.624140 -0.760162
v -0.970644 0.624140 -0.760162
v 0.929356 0.624140 -0.760162
v 1.029356 0.624140 -0.760162
v -1.170644 0.624140 -0.860162
v -0.970644 0.624140 -0.860162
v 0.929356 0.624140 -0.860162
v 1.129356 0.624140 -0.860162
v -1.370644 0.624140 -1.260162
v 1.429356 0.624140 -1.260162
v 0.329356 -0.875860 -1.060162
v 0.629356 -0.875860 -1.060162
v 0.329356 -0.875860 -1.260162
v 0.629356 -0.875860 -1.260162
v -1.070644 -0.775860 0.539838
v 1.029356 -0.775860 0.539838
v -1.070644 -0.775860 -0.760162
v 0.329356 -0.775860 -0.760162
v 0.629356 -0.775860 -0.760162
v 1.029356 -0.775860 -0.760162
v 0.329356 -0.775860 -0.960162
v 0.629356 -0.775860 -0.960162
v 0.329356 -0.775860 -1.060162
v 0.629356 -0.775860 -1.060162
v -1.270644 -0.475860 0.739838
v -1.170644 -0.475860 0.739838
v -1.170644 -0.475860 0.639838
v -1.070644 -0.475860 0.739838
v 1.029356 -0.475860 0.739838
v -1.070644 -0.475860 0.639838
v 1.029356 -0.475860 0.639838
v 1.129356 -0.475860 0.739838
v 1.229356 -0.475860 0.739838
v 1.129356 -0.475860 0.639838
v -1.170644 -0.475860 -0.860162
v 1.129356 -0.475860 -0.860162
v 0.329356 -0.475860 -0.860162
v -1.270644 -0.475860 -0.960162
v 0.329356 -0.475860 -0.960162
v 0.629356 -0.475860 -0.860162
v 0.629356 -0.475860 -0.960162
v 1.229356 -0.475860 -0.960162
v -1.170644 -0.175861 1.039838
v 1.129356 -0.175861 1.039838
v -1.170644 -0.175861 0.639838
v -0.970644 -0.175861 0.639838
v 0.929356 -0.175861 0.639838
v 1.129356 -0.175861 0.639838
v -0.970644 -0.175860 0.539838
v 0.929356 -0.175860 0.539838
v -1.170644 -0.175860 0.439838
v -1.070644 -0.175860 0.439838
v -1.170644 -0.175860 -0.660162
v -1.070644 -0.175860 -0.660162
v 1.029356 -0.175860 0.439838
v 1.129356 -0.175860 0.439838
v 1.029356 -0.175860 -0.660162
v 1.129356 -0.175860 -0.660162
v -0.970644 -0.175860 -0.760162
v 0.329356 -0.175860 -0.760162
v -0.970644 -0.175860 -0.860162
v 0.329356 -0.175860 -0.860162
v 0.629356 -0.175860 -0.760162
v 0.929356 -0.175860 -0.760162
v 0.629356 -0.175860 -0.860162
v 0.929356 -0.175860 -0.860162
v -1.370644 0.724139 1.339838
v 1.429356 0.724139 1.339838
v -1.070644 0.724140 1.139838
v 1.129356 0.724140 1.139838
v -1.070644 0.724140 -1.060162
v 1.129356 0.724140 -1.060162
v -1.370644 0.724140 -1.260162
v 1.429356 0.724140 -1.260162
v -1.070644 0.824139 1.139838
v 1.129356 0.824139 1.139838
v -0.770644 0.824139 0.739838
v 0.829356 0.824139 0.739838
v -0.770644 0.824140 -0.760162
v 0.829356 0.824140 -0.760162
v -1.070644 0.824140 -1.060162
v 1.129356 0.824140 -1.060162
v -0.770644 0.924140 0.739838
v 0.829356 0.924140 0.739838
v -0.770644 0.924140 -0.760162
v 0.829356 0.924140 -0.760162
vt 0.974609 0.500000
vt 0.974609 0.500000
vt 0.974609 0.500000
vt 0.974609 0.500000
vt 0.994141 0.500000
vt 0.994141 0.500000
vt 0.994141 0.500000
vt 0.994141 0.500000
vt 0.908203 0.500000
vt 0.908203 0.500000
vt 0.908203 0.500000
vt 0.908203 0.500000
vt 0.908203 0.500000
vt 0.908203 0.500000
vt 0.978516 0.500000
vt 0.978516 0.500000
vt 0.978516 0.500000
vt 0.978516 0.500000
vt 0.978516 0.500000
vt 0.978516 0.500000
vt 0.908203 0.500000
vt 0.908203 0.500000
vt 0.908203 0.500000
vt 0.978516 0.500000
vt 0.908203 0.500000
vt 0.908203 0.500000
vt 0.908203 0.500000
vt 0.908203 0.500000
vt 0.908203 0.500000
vt 0.908203 0.500000
vt 0.974609 0.500000
vt 0.974609 0.500000
vt 0.974609 0.500000
vt 0.974609 0.500000
vt 0.974609 0.500000
vt 0.974609 0.500000
vt 0.974609 0.500000
vt 0.974609 0.500000
vt 0.994141 0.500000
vt 0.994141 0.500000
vt 0.994141 0.500000
vt 0.994141 0.500000
vt 0.994141 0.500000
vt 0.994141 0.500000
vt 0.994141 0.500000
vt 0.908203 0.500000
vt 0.908203 0.500000
vt 0.908203 0.500000
vt 0.908203 0.500000
vt 0.908203 0.500000
vt 0.908203 0.500000
vt 0.908203 0.500000
vt 0.908203 0.500000
vt 0.908203 0.500000
vt 0.908203 0.500000
vt 0.908203 0.500000
vt 0.908203 0.500000
vt 0.908203 0.500000
vt 0.908203 0.500000
vt 0.978516 0.500000
vt 0.978516 0.500000
vt 0.978516 0.500000
vt 0.978516 0.500000
vt 0.978516 0.500000
vt 0.978516 0.500000
vt 0.978516 0.500000
vt 0.908203 0.500000
vt 0.908203 0.500000
vt 0.908203 0.500000
vt 0.908203 0.500000
vt 0.908203 0.500000
vt 0.908203 0.500000
vt 0.908203 0.500000
vt 0.908203 0.500000
vt 0.978516 0.500000
vt 0.978516 0.500000
vt 0.978516 0.500000
vt 0.978516 0.500000
vt 0.978516 0.500000
vt 0.978516 0.500000
vt 0.978516 0.500000
vt 0.908203 0.500000
vt 0.908203 0.500000
vt 0.908203 0.500000
vt 0.908203 0.500000
vt 0.908203 0.500000
vt 0.908203 0.500000
vt 0.908203 0.500000
vt 0.908203 0.500000
vt 0.908203 0.500000
vt 0.908203 0.500000
vt 0.908203 0.500000
vt 0.908203 0.500000
vt 0.908203 0.500000
vt 0.908203 0.500000
vt 0.908203 0.500000
vt 0.908203 0.500000
vt 0.908203 0.500000
vt 0.908203 0.500000
vt 0.908203 0.500000
vt 0.908203 0.500000
vt 0.908203 0.500000
vt 0.908203 0.500000
vt 0.994141 0.500000
vt 0.994141 0.500000
vt 0.994141 0.500000
vt 0.994141 0.500000
vt 0.994141 0.500000
vt 0.994141 0.500000
vt 0.994141 0.500000
vt 0.974609 0.500000
vt 0.974609 0.500000
vt 0.974609 0.500000
vt 0.974609 0.500000
vt 0.994141 0.500000
vt 0.994141 0.500000
vt 0.994141 0.500000
vt 0.994141 0.500000
vt 0.978516 0.500000
vt 0.978516 0.500000
vt 0.978516 0.500000
vt 0.978516 0.500000
vt 0.978516 0.500000
vt 0.978516 0.500000
vt 0.908203 0.500000
vt 0.908203 0.500000
vt 0.908203 0.500000
vt 0.978516 0.500000
vt 0.908203 0.500000
vt 0.908203 0.500000
vt 0.908203 0.500000
vt 0.908203 0.500000
vt 0.908203 0.500000
vt 0.908203 0.500000
vt 0.974609 0.500000
vt 0.974609 0.500000
vt 0.974609 0.500000
vt 0.974609 0.500000
vt 0.908203 0.500000
vt 0.908203 0.500000
vt 0.908203 0.500000
vt 0.908203 0.500000
vt 0.974609 0.500000
vt 0.974609 0.500000
vt 0.974609 0.500000
vt 0.974609 0.500000
vt 0.974609 0.500000
vt 0.974609 0.500000
vt 0.974609 0.500000
vt 0.974609 0.500000
vt 0.974609 0.500000
vt 0.974609 0.500000
vt 0.974609 0.500000
vt 0.974609 0.500000
vt 0.978516 0.500000
vt 0.978516 0.500000
vt 0.978516 0.500000
vt 0.978516 0.500000
vt 0.978516 0.500000
vt 0.978516 0.500000
vt 0.978516 0.500000
vt 0.978516 0.500000
vt 0.978516 0.500000
vt 0.978516 0.500000
vt 0.978516 0.500000
vt 0.978516 0.500000
vt 0.978516 0.500000
vt 0.978516 0.500000
vt 0.978516 0.500000
vt 0.978516 0.500000
vt 0.908203 0.500000
vt 0.908203 0.500000
vt 0.908203 0.500000
vt 0.908203 0.500000
vt 0.974609 0.500000
vt 0.974609 0.500000
vt 0.974609 0.500000
vt 0.974609 0.500000
vt 0.908203 0.500000
vt 0.908203 0.500000
vt 0.908203 0.500000
vt 0.908203 0.500000
vt 0.908203 0.500000
vt 0.908203 0.500000
vt 0.908203 0.500000
vt 0.908203 0.500000
vt 0.908203 0.500000
vt 0.908203 0.500000
vt 0.908203 0.500000
vt 0.908203 0.500000
vt 0.994141 0.500000
vt 0.994141 0.500000
vt 0.994141 0.500000
vt 0.994141 0.500000
vt 0.908203 0.500000
vt 0.908203 0.500000
vt 0.908203 0.500000
vt 0.908203 0.500000
vt 0.908203 0.500000
vt 0.908203 0.500000
vt 0.908203 0.500000
vt 0.908203 0.500000
vt 0.908203 0.500000
vt 0.908203 0.500000
vt 0.908203 0.500000
vt 0.908203 0.500000
vt 0.908203 0.500000
vt 0.908203 0.500000
vt 0.908203 0.500000
vt 0.908203 0.500000
vt 0.908203 0.500000
vt 0.908203 0.500000
vt 0.908203 0.500000
vt 0.908203 0.500000
vt 0.908203 0.500000
vt 0.908203 0.500000
vt 0.908203 0.500000
vt 0.908203 0.500000
vt 0.908203 0.500000
vt 0.908203 0.500000
vt 0.908203 0.500000
vt 0.908203 0.500000
vt 0.908203 0.500000
vt 0.908203 0.500000
vt 0.908203 0.500000
vt 0.908203 0.500000
vt 0.908203 0.500000
vt 0.908203 0.500000
vt 0.908203 0.500000
vt 0.908203 0.500000
vt 0.908203 0.500000
vt 0.908203 0.500000
vt 0.908203 0.500000
vt 0.908203 0.500000
vt 0.974609 0.500000
vt 0.974609 0.500000
vt 0.974609 0.500000
vt 0.974609 0.500000
vt 0.908203 0.500000
vt 0.908203 0.500000
vt 0.908203 0.500000
vt 0.908203 0.500000
vt 0.994141 0.500000
vt 0.994141 0.500000
vt 0.994141 0.500000
vt 0.994141 0.500000
vt 0.908203 0.500000
vt 0.908203 0.500000
vt 0.908203 0.500000
vt 0.908203 0.500000
vt 0.908203 0.500000
vt 0.994141 0.500000
vt 0.994141 0.500000
vt 0.994141 0.500000
vt 0.994141 0.500000
vt 0.908203 0.500000
vt 0.908203 0.500000
vt 0.908203 0.500000
vt 0.908203 0.500000
vt 0.908203 0.500000
vt 0.908203 0.500000
vt 0.908203 0.500000
vt 0.908203 0.500000
vt 0.908203 0.500000
vt 0.908203 0.500000
vt 0.908203 0.500000
vt 0.994141 0.500000
vt 0.994141 0.500000
vt 0.994141 0.500000
vt 0.994141 0.500000
vt 0.974609 0.500000
vt 0.974609 0.500000
vt 0.974609 0.500000
vt 0.974609 0.500000
vt 0.994141 0.500000
vt 0.994141 0.500000
vt 0.994141 0.500000
vt 0.994141 0.500000
vt 0.974609 0.500000
vt 0.974609 0.500000
vt 0.974609 0.500000
vt 0.974609 0.500000
vt 0.994141 0.500000
vt 0.994141 0.500000
vt 0.994141 0.500000
vt 0.994141 0.500000
vt 0.994141 0.500000
vt 0.994141 0.500000
vt 0.994141 0.500000
vt 0.994141 0.500000
vt 0.908203 0.500000
vt 0.908203 0.500000
vt 0.908203 0.500000
vt 0.908203 0.500000
vt 0.908203 0.500000
vt 0.908203 0.500000
vt 0.908203 0.500000
vt 0.908203 0.500000
vt 0.908203 0.500000
vt 0.908203 0.500000
vt 0.908203 0.500000
vt 0.908203 0.500000
vt 0.978516 0.500000
vt 0.978516 0.500000
vt 0.978516 0.500000
vt 0.978516 0.500000
vt 0.978516 0.500000
vt 0.978516 0.500000
vt 0.978516 0.500000
vt 0.978516 0.500000
vt 0.978516 0.500000
vt 0.978516 0.500000
vt 0.978516 0.500000
vt 0.978516 0.500000
vt 0.978516 0.500000
vt 0.978516 0.500000
vt 0.978516 0.500000
vt 0.978516 0.500000
vt 0.978516 0.500000
vt 0.978516 0.500000
vt 0.978516 0.500000
vt 0.978516 0.500000
vt 0.974609 0.500000
vt 0.974609 0.500000
vt 0.974609 0.500000
vt 0.974609 0.500000
vt 0.974609 0.500000
vt 0.974609 0.500000
vt 0.974609 0.500000
vt 0.974609 0.500000
vt 0.974609 0.500000
vt 0.974609 0.500000
vt 0.974609 0.500000
vt 0.974609 0.500000
vt 0.974609 0.500000
vt 0.974609 0.500000
vt 0.974609 0.500000
vt 0.974609 0.500000
vt 0.974609 0.500000
vt 0.974609 0.500000
vt 0.974609 0.500000
vt 0.974609 0.500000
vt 0.974609 0.500000
vt 0.974609 0.500000
vt 0.974609 0.500000
vt 0.974609 0.500000
vt 0.974609 0.500000
vt 0.974609 0.500000
vt 0.974609 0.500000
vt 0.974609 0.500000
vt 0.994141 0.500000
vt 0.994141 0.500000
vt 0.994141 0.500000
vt 0.994141 0.500000
vt 0.994141 0.500000
vt 0.994141 0.500000
vt 0.994141 0.500000
vt 0.994141 0.500000
vt 0.994141 0.500000
vt 0.994141 0.500000
vt 0.994141 0.500000
vt 0.994141 0.500000
vt 0.994141 0.500000
vt 0.994141 0.500000
vt 0.908203 0.500000
vt 0.908203 0.500000
vt 0.908203 0.500000
vt 0.908203 0.500000
vt 0.908203 0.500000
vt 0.908203 0.500000
vt 0.908203 0.500000
vt 0.908203 0.500000
vt 0.908203 0.500000
vt 0.908203 0.500000
vt 0.908203 0.500000
vt 0.908203 0.500000
vt 0.908203 0.500000
vt 0.908203 0.500000
vt 0.908203 0.500000
vt 0.908203 0.500000
vt 0.908203 0.500000
vt 0.908203 0.500000
vt 0.978516 0.500000
vt 0.978516 0.500000
vt 0.978516 0.500000
vt 0.978516 0.500000
vt 0.978516 0.500000
vt 0.978516 0.500000
vt 0.908203 0.500000
vt 0.908203 0.500000
vt 0.908203 0.500000
vt 0.908203 0.500000
vt 0.908203 0.500000
vt 0.908203 0.500000
vt 0.908203 0.500000
vt 0.908203 0.500000
vt 0.908203 0.500000
vt 0.908203 0.500000
vt 0.908203 0.500000
vt 0.908203 0.500000
vt 0.908203 0.500000
vt 0.908203 0.500000
vt 0.908203 0.500000
vt 0.908203 0.500000
vt 0.908203 0.500000
vt 0.908203 0.500000
vt 0.908203 0.500000
vt 0.908203 0.500000
vt 0.974609 0.500000
vt 0.974609 0.500000
vt 0.974609 0.500000
vt 0.974609 0.500000
vt 0.974609 0.500000
vt 0.974609 0.500000
vt 0.974609 0.500000
vt 0.974609 0.500000
vt 0.974609 0.500000
vt 0.974609 0.500000
vt 0.974609 0.500000
vt 0.974609 0.500000
vt 0.974609 0.500000
vt 0.974609 0.500000
vt 0.974609 0.500000
vt 0.974609 0.500000
vt 0.974609 0.500000
vt 0.974609 0.500000
vt 0.974609 0.500000
vt 0.974609 0.500000
vn -1.0000 0.0000 0.0000
vn 1.0000 0.0000 0.0000
vn 0.0000 0.0000 1.0000
vn 0.0000 0.0000 -1.0000
vn 0.0000 -1.0000 -0.0000
vn 0.0000 1.0000 0.0000
usemtl palette
s 1
f 1/1/1 2/2/1 3/3/1
f 4/4/1 2/2/1 1/1/1
f 5/5/1 6/6/1 7/7/1
f 8/8/1 6/6/1 5/5/1
f 9/9/1 5/10/1 10/11/1
f 9/9/1 11/12/1 8/13/1
f 9/9/1 8/13/1 5/10/1
f 12/14/1 11/12/1 9/9/1
f 13/15/1 14/16/1 15/17/1
f 13/15/1 16/18/1 14/16/1
f 17/19/1 13/15/1 18/20/1
f 19/21/1 20/22/1 16/23/1
f 19/24/1 13/15/1 17/19/1
f 19/24/1 16/18/1 13/15/1
f 21/25/1 20/22/1 19/21/1
f 22/26/1 20/22/1 21/25/1
f 23/27/1 21/25/1 19/21/1
f 24/28/1 21/25/1 23/27/1
f 25/29/1 20/22/1 22/26/1
f 26/30/1 20/22/1 25/29/1
f 27/31/1 28/32/1 29/33/1
f 30/34/1 28/32/1 27/31/1
f 31/35/1 32/36/1 33/37/1
f 34/38/1 32/36/1 31/35/1
f 35/39/1 36/40/1 37/41/1
f 38/42/1 36/40/1 35/39/1
f 39/43/1 35/39/1 37/41/1
f 40/44/1 35/39/1 39/43/1
f 41/45/1 35/39/1 40/44/1
f 42/46/1 43/47/1 44/48/1
f 45/49/1 43/47/1 42/46/1
f 46/50/1 42/46/1 44/48/1
f 47/51/1 42/46/1 46/50/1
f 48/52/1 49/53/1 50/54/1
f 51/55/1 49/53/1 48/52/1
f 52/56/1 53/57/1 54/58/1
f 55/59/1 53/57/1 52/56/1
f 56/60/1 57/61/1 58/62/1
f 56/60/1 59/63/1 57/61/1
f 60/64/1 56/60/1 61/65/1
f 62/66/1 59/63/1 56/60/1
f 62/66/1 56/60/1 60/64/1
f 63/67/1 64/68/1 65/69/1
f 66/70/1 64/68/1 63/67/1
f 67/71/1 63/67/1 65/69/1
f 68/72/1 63/67/1 67/71/1
f 69/73/1 64/68/1 66/70/1
f 70/74/1 64/68/1 69/73/1
f 71/75/2 72/76/2 73/77/2
f 72/76/2 74/78/2 73/77/2
f 75/79/2 73/77/2 76/80/2
f 73/77/2 74/78/2 77/81/2
f 76/80/2 73/77/2 77/81/2
f 78/82/2 79/83/2 80/84/2
f 80/84/2 79/83/2 81/85/2
f 78/82/2 80/84/2 82/86/2
f 82/86/2 80/84/2 83/87/2
f 81/85/2 79/83/2 84/88/2
f 84/88/2 79/83/2 85/89/2
f 86/90/2 87/91/2 88/92/2
f 88/92/2 87/91/2 89/93/2
f 90/94/2 91/95/2 92/96/2
f 92/96/2 91/95/2 93/97/2
f 94/98/2 95/99/2 96/100/2
f 96/100/2 95/99/2 97/101/2
f 94/98/2 96/100/2 98/102/2
f 98/102/2 96/100/2 99/103/2
f 100/104/2 101/105/2 102/106/2
f 102/106/2 101/105/2 103/107/2
f 100/104/2 102/106/2 104/108/2
f 104/108/2 102/106/2 105/109/2
f 105/109/2 102/106/2 106/110/2
f 107/111/2 108/112/2 109/113/2
f 109/113/2 108/112/2 110/114/2
f 111/115/2 112/116/2 113/117/2
f 113/117/2 112/116/2 114/118/2
f 115/119/2 116/120/2 117/121/2
f 116/120/2 118/122/2 117/121/2
f 119/123/2 117/121/2 120/124/2
f 118/125/2 121/126/2 122/127/2
f 120/124/2 117/121/2 122/128/2
f 117/121/2 118/122/2 122/128/2
f 122/127/2 121/126/2 123/129/2
f 123/129/2 121/126/2 124/130/2
f 122/127/2 123/129/2 125/131/2
f 125/131/2 123/129/2 126/132/2
f 124/130/2 121/126/2 127/133/2
f 127/133/2 121/126/2 128/134/2
f 129/135/2 130/136/2 131/137/2
f 131/137/2 130/136/2 132/138/2
f 133/139/2 134/140/2 135/141/2
f 135/141/2 134/140/2 136/142/2
f 137/143/2 138/144/2 139/145/2
f 139/145/2 138/144/2 140/146/2
f 141/147/3 142/148/3 143/149/3
f 144/150/3 142/148/3 141/147/3
f 145/151/3 146/152/3 147/153/3
f 148/154/3 146/152/3 145/151/3
f 149/155/3 150/156/3 151/157/3
f 152/158/3 150/156/3 149/155/3
f 153/159/3 150/156/3 152/158/3
f 154/160/3 153/159/3 155/161/3
f 156/162/3 150/156/3 153/159/3
f 156/162/3 153/159/3 154/160/3
f 157/163/3 158/164/3 159/165/3
f 160/166/3 158/164/3 157/163/3
f 161/167/3 162/168/3 163/169/3
f 164/170/3 162/168/3 161/167/3
f 165/171/3 166/172/3 167/173/3
f 168/174/3 165/171/3 167/173/3
f 169/175/3 170/176/3 171/177/3
f 172/178/3 170/176/3 169/175/3
f 173/179/3 168/174/3 167/173/3
f 174/180/3 173/179/3 167/173/3
f 175/181/3 174/180/3 167/173/3
f 176/182/3 174/180/3 175/181/3
f 177/183/3 178/184/3 179/185/3
f 180/186/3 178/184/3 177/183/3
f 181/187/3 182/188/3 183/189/3
f 184/190/3 182/188/3 181/187/3
f 185/191/3 186/192/3 187/193/3
f 188/194/3 186/192/3 185/191/3
f 189/195/3 190/196/3 191/197/3
f 192/198/3 190/196/3 189/195/3
f 193/199/3 194/200/3 195/201/3
f 196/202/3 194/200/3 193/199/3
f 197/203/3 198/204/3 199/205/3
f 200/206/3 198/204/3 197/203/3
f 201/207/3 202/208/3 203/209/3
f 204/210/3 202/208/3 201/207/3
f 205/211/3 201/207/3 203/209/3
f 206/212/3 201/207/3 205/211/3
f 207/213/3 208/214/3 209/215/3
f 210/216/3 207/213/3 209/215/3
f 210/216/3 211/217/3 207/213/3
f 212/218/3 211/217/3 210/216/3
f 213/219/4 214/220/4 215/221/4
f 215/221/4 214/220/4 216/222/4
f 213/219/4 215/221/4 217/223/4
f 213/219/4 217/223/4 218/224/4
f 217/223/4 219/225/4 218/224/4
f 218/224/4 219/225/4 220/226/4
f 221/227/4 222/228/4 223/229/4
f 223/229/4 222/228/4 224/230/4
f 225/231/4 226/232/4 227/233/4
f 227/233/4 226/232/4 228/234/4
f 229/235/4 230/236/4 231/237/4
f 231/237/4 230/236/4 232/238/4
f 233/239/4 234/240/4 235/241/4
f 235/241/4 234/240/4 236/242/4
f 237/243/4 238/244/4 239/245/4
f 239/245/4 238/244/4 240/246/4
f 233/239/4 235/241/4 241/247/4
f 241/247/4 235/241/4 242/248/4
f 243/249/4 244/250/4 245/251/4
f 246/252/4 247/253/4 248/254/4
f 248/254/4 247/253/4 249/255/4
f 243/249/4 245/251/4 250/256/4
f 245/251/4 251/257/4 250/256/4
f 250/256/4 251/257/4 252/258/4
f 253/259/4 254/260/4 255/261/4
f 255/261/4 254/260/4 256/262/4
f 257/263/4 258/264/4 259/265/4
f 259/265/4 258/264/4 260/266/4
f 261/267/4 262/268/4 263/269/4
f 263/269/4 262/268/4 264/270/4
f 265/271/4 266/272/4 267/273/4
f 267/273/4 266/272/4 268/274/4
f 269/275/4 270/276/4 271/277/4
f 271/277/4 270/276/4 272/278/4
f 273/279/4 274/280/4 275/281/4
f 275/281/4 274/280/4 276/282/4
f 277/283/5 278/284/5 279/285/5
f 280/286/5 278/284/5 277/283/5
f 281/287/5 278/284/5 280/286/5
f 282/288/5 278/284/5 281/287/5
f 283/289/5 281/287/5 280/286/5
f 284/290/5 281/287/5 283/289/5
f 285/291/5 286/292/5 287/293/5
f 288/294/5 286/292/5 285/291/5
f 289/295/5 286/292/5 288/294/5
f 290/296/5 291/297/5 292/298/5
f 293/299/5 291/297/5 290/296/5
f 294/300/5 289/295/5 295/301/5
f 296/302/5 286/292/5 289/295/5
f 296/302/5 289/295/5 294/300/5
f 297/303/5 298/304/5 299/305/5
f 300/306/5 298/304/5 297/303/5
f 301/307/5 302/308/5 303/309/5
f 304/310/5 302/308/5 301/307/5
f 305/311/5 306/312/5 307/313/5
f 308/314/5 306/312/5 305/311/5
f 309/315/5 310/316/5 311/317/5
f 312/318/5 310/316/5 309/315/5
f 313/319/5 314/320/5 315/321/5
f 316/322/5 314/320/5 313/319/5
f 317/323/5 318/324/5 319/325/5
f 320/326/5 318/324/5 317/323/5
f 321/327/5 318/324/5 320/326/5
f 322/328/5 318/324/5 321/327/5
f 323/329/5 321/327/5 320/326/5
f 324/330/5 321/327/5 323/329/5
f 325/331/5 317/323/5 319/325/5
f 326/332/5 327/333/5 324/330/5
f 326/332/5 323/329/5 328/334/5
f 326/332/5 324/330/5 323/329/5
f 329/335/5 327/333/5 326/332/5
f 330/336/5 318/324/5 322/328/5
f 331/337/5 325/331/5 319/325/5
f 331/337/5 330/336/5 329/335/5
f 331/337/5 329/335/5 326/332/5
f 331/337/5 326/332/5 325/331/5
f 332/338/5 330/336/5 331/337/5
f 333/339/5 330/336/5 332/338/5
f 334/340/5 318/324/5 330/336/5
f 334/340/5 330/336/5 333/339/5
f 335/341/5 333/339/5 332/338/5
f 336/342/5 333/339/5 335/341/5
f 337/343/5 333/339/5 336/342/5
f 338/344/5 333/339/5 337/343/5
f 339/345/5 331/337/5 319/325/5
f 340/346/5 337/343/5 336/342/5
f 341/347/5 337/343/5 340/346/5
f 342/348/5 318/324/5 334/340/5
f 343/349/5 341/347/5 340/346/5
f 343/349/5 342/348/5 341/347/5
f 343/349/5 340/346/5 339/345/5
f 343/349/5 339/345/5 319/325/5
f 344/350/5 318/324/5 342/348/5
f 344/350/5 342/348/5 343/349/5
f 345/351/6 346/352/6 347/353/6
f 347/353/6 346/352/6 348/354/6
f 349/355/6 350/356/6 351/357/6
f 351/357/6 350/356/6 352/358/6
f 352/358/6 350/356/6 353/359/6
f 353/359/6 350/356/6 354/360/6
f 352/358/6 353/359/6 355/361/6
f 355/361/6 353/359/6 356/362/6
f 355/361/6 356/362/6 357/363/6
f 357/363/6 356/362/6 358/364/6
f 359/365/6 360/366/6 361/367/6
f 362/368/6 363/369/6 364/370/6
f 364/370/6 363/369/6 365/371/6
f 366/372/6 367/373/6 368/374/6
f 359/365/6 361/367/6 369/375/6
f 368/374/6 367/373/6 370/376/6
f 369/375/6 371/377/6 372/378/6
f 359/365/6 369/375/6 372/378/6
f 372/378/6 371/377/6 373/379/6
f 374/380/6 370/376/6 375/381/6
f 370/376/6 367/373/6 376/382/6
f 375/381/6 370/376/6 376/382/6
f 377/383/6 378/384/6 379/385/6
f 379/385/6 378/384/6 380/386/6
f 380/386/6 378/384/6 381/387/6
f 381/387/6 378/384/6 382/388/6
f 380/389/6 381/390/6 383/391/6
f 383/391/6 381/390/6 384/392/6
f 385/393/6 386/394/6 387/395/6
f 387/395/6 386/394/6 388/396/6
f 389/397/6 390/398/6 391/399/6
f 391/399/6 390/398/6 392/400/6
f 393/401/6 394/402/6 395/403/6
f 395/403/6 394/402/6 396/404/6
f 397/405/6 398/406/6 399/407/6
f 399/407/6 398/406/6 400/408/6
f 401/409/6 402/410/6 403/411/6
f 403/411/6 402/410/6 404/412/6
f 401/409/6 403/411/6 405/413/6
f 404/412/6 402/410/6 406/414/6
f 401/409/6 405/413/6 407/415/6
f 405/413/6 406/414/6 407/415/6
f 406/414/6 402/410/6 408/416/6
f 407/415/6 406/414/6 408/416/6
f 409/417/6 410/418/6 411/419/6
f 411/419/6 410/418/6 412/420/6
f 409/417/6 411/419/6 413/421/6
f 412/420/6 410/418/6 414/422/6
f 409/417/6 413/421/6 415/423/6
f 413/421/6 414/422/6 415/423/6
f 414/422/6 410/418/6 416/424/6
f 415/423/6 414/422/6 416/424/6
f 417/425/6 418/426/6 419/427/6
f 419/427/6 418/426/6 420/428/6
