%YAML 1.1
%TAG !u! tag:unity3d.com,2011:
--- !u!1001 &2144696243400847003
PrefabInstance:
  m_ObjectHideFlags: 0
  serializedVersion: 2
  m_Modification:
    m_TransformParent: {fileID: 0}
    m_Modifications:
    - target: {fileID: 3493843734766521394, guid: 424425130e9ee6648afb2d3bb44cfd4b,
        type: 3}
      propertyPath: m_Name
      value: Main Part2 Variant
      objectReference: {fileID: 0}
    - target: {fileID: 3493843734766521392, guid: 424425130e9ee6648afb2d3bb44cfd4b,
        type: 3}
      propertyPath: description
      value: My Mother needs money for a doctor's checkup
      objectReference: {fileID: 0}
    - target: {fileID: 3493843734766521392, guid: 424425130e9ee6648afb2d3bb44cfd4b,
        type: 3}
      propertyPath: DueDate
      value: 14
      objectReference: {fileID: 0}
    - target: {fileID: 3493843734766521392, guid: 424425130e9ee6648afb2d3bb44cfd4b,
        type: 3}
      propertyPath: Requirement
      value: 3050
      objectReference: {fileID: 0}
    - target: {fileID: 3493843734766521392, guid: 424425130e9ee6648afb2d3bb44cfd4b,
        type: 3}
      propertyPath: ReqAmtNeeded
      value: 3050
      objectReference: {fileID: 0}
    - target: {fileID: 3493843734766521392, guid: 424425130e9ee6648afb2d3bb44cfd4b,
        type: 3}
      propertyPath: Effect
      value: + 20 Happiness
      objectReference: {fileID: 0}
    - target: {fileID: 3493843734766521392, guid: 424425130e9ee6648afb2d3bb44cfd4b,
        type: 3}
      propertyPath: EffectAmt
      value: 20
      objectReference: {fileID: 0}
    - target: {fileID: 3493843734766521395, guid: 424425130e9ee6648afb2d3bb44cfd4b,
        type: 3}
      propertyPath: m_LocalPosition.x
      value: 0
      objectReference: {fileID: 0}
    - target: {fileID: 3493843734766521395, guid: 424425130e9ee6648afb2d3bb44cfd4b,
        type: 3}
      propertyPath: m_LocalPosition.y
      value: 0
      objectReference: {fileID: 0}
    - target: {fileID: 3493843734766521395, guid: 424425130e9ee6648afb2d3bb44cfd4b,
        type: 3}
      propertyPath: m_LocalPosition.z
      value: 0
      objectReference: {fileID: 0}
    - target: {fileID: 3493843734766521395, guid: 424425130e9ee6648afb2d3bb44cfd4b,
        type: 3}
      propertyPath: m_LocalRotation.x
      value: 0
      objectReference: {fileID: 0}
    - target: {fileID: 3493843734766521395, guid: 424425130e9ee6648afb2d3bb44cfd4b,
        type: 3}
      propertyPath: m_LocalRotation.y
      value: 0
      objectReference: {fileID: 0}
    - target: {fileID: 3493843734766521395, guid: 424425130e9ee6648afb2d3bb44cfd4b,
        type: 3}
      propertyPath: m_LocalRotation.z
      value: 0
      objectReference: {fileID: 0}
    - target: {fileID: 3493843734766521395, guid: 424425130e9ee6648afb2d3bb44cfd4b,
        type: 3}
      propertyPath: m_LocalRotation.w
      value: 1
      objectReference: {fileID: 0}
    - target: {fileID: 3493843734766521395, guid: 424425130e9ee6648afb2d3bb44cfd4b,
        type: 3}
      propertyPath: m_RootOrder
      value: 0
      objectReference: {fileID: 0}
    - target: {fileID: 3493843734766521395, guid: 424425130e9ee6648afb2d3bb44cfd4b,
        type: 3}
      propertyPath: m_LocalEulerAnglesHint.x
      value: 0
      objectReference: {fileID: 0}
    - target: {fileID: 3493843734766521395, guid: 424425130e9ee6648afb2d3bb44cfd4b,
        type: 3}
      propertyPath: m_LocalEulerAnglesHint.y
      value: 0
      objectReference: {fileID: 0}
    - target: {fileID: 3493843734766521395, guid: 424425130e9ee6648afb2d3bb44cfd4b,
        type: 3}
      propertyPath: m_LocalEulerAnglesHint.z
      value: 0
      objectReference: {fileID: 0}
    - target: {fileID: 3493843734766521395, guid: 424425130e9ee6648afb2d3bb44cfd4b,
        type: 3}
      propertyPath: m_AnchoredPosition.x
      value: 0
      objectReference: {fileID: 0}
    - target: {fileID: 3493843734766521395, guid: 424425130e9ee6648afb2d3bb44cfd4b,
        type: 3}
      propertyPath: m_AnchoredPosition.y
      value: 0
      objectReference: {fileID: 0}
    - target: {fileID: 3493843734766521395, guid: 424425130e9ee6648afb2d3bb44cfd4b,
        type: 3}
      propertyPath: m_SizeDelta.x
      value: 960
      objectReference: {fileID: 0}
    - target: {fileID: 3493843734766521395, guid: 424425130e9ee6648afb2d3bb44cfd4b,
        type: 3}
      propertyPath: m_SizeDelta.y
      value: 139.8
      objectReference: {fileID: 0}
    - target: {fileID: 3493843734766521395, guid: 424425130e9ee6648afb2d3bb44cfd4b,
        type: 3}
      propertyPath: m_AnchorMin.x
      value: 0.5
      objectReference: {fileID: 0}
    - target: {fileID: 3493843734766521395, guid: 424425130e9ee6648afb2d3bb44cfd4b,
        type: 3}
      propertyPath: m_AnchorMin.y
      value: 0.5
      objectReference: {fileID: 0}
    - target: {fileID: 3493843734766521395, guid: 424425130e9ee6648afb2d3bb44cfd4b,
        type: 3}
      propertyPath: m_AnchorMax.x
      value: 0.5
      objectReference: {fileID: 0}
    - target: {fileID: 3493843734766521395, guid: 424425130e9ee6648afb2d3bb44cfd4b,
        type: 3}
      propertyPath: m_AnchorMax.y
      value: 0.5
      objectReference: {fileID: 0}
    - target: {fileID: 3493843734766521395, guid: 424425130e9ee6648afb2d3bb44cfd4b,
        type: 3}
      propertyPath: m_Pivot.x
      value: 0.5
      objectReference: {fileID: 0}
    - target: {fileID: 3493843734766521395, guid: 424425130e9ee6648afb2d3bb44cfd4b,
        type: 3}
      propertyPath: m_Pivot.y
      value: 0.5
      objectReference: {fileID: 0}
    m_RemovedComponents: []
  m_SourcePrefab: {fileID: 100100000, guid: 424425130e9ee6648afb2d3bb44cfd4b, type: 3}
